{"message":"操作成功！","data":{"list":{"content":[{"id":"50000210000000136367","wfbh":null,"jdslb":null,"jdsbh":null,"gslx":"1","jszh":null,"hpzl":null,"wfgxsj":null,"gsjdsbh":"5036002900786009","gsajmc":"彭春机动车行驶超速50%以上案","gscflb":null,"gscfss":null,"gscfyj":null,"gsjsrxm":"彭春","gshpzl":"小型汽车","gshphm":"渝FKC771","gscfjg":"罚款1000元","gsjf":null,"gscfbm":"重庆市奉节县公安局交通巡逻警察大队","gscfrq":"2017年07月12日","gscfxzqh":null,"gsqymc":null,"gsfrxm":null,"gsshxydm":null,"lczt":null,"scsj":null,"gsrq":null,"gssj":null,"gsr":null,"gsbm":null,"zfsj":null,"gxsj":null,"csbj":null,"gsyw":"01"},{"id":"50000210000000136427","wfbh":null,"jdslb":null,"jdsbh":null,"gslx":"1","jszh":null,"hpzl":null,"wfgxsj":null,"gsjdsbh":"5008002900175806","gsajmc":"蒲华贞机动车行驶超速50%以上案","gscflb":null,"gscfss":null,"gscfyj":null,"gsjsrxm":"蒲华贞","gshpzl":"小型汽车","gshphm":"渝B292Q0","gscfjg":"罚款1000元","gsjf":null,"gscfbm":"重庆市公安局南岸区分局交通巡逻警察支队","gscfrq":"2017年07月12日","gscfxzqh":null,"gsqymc":null,"gsfrxm":null,"gsshxydm":null,"lczt":null,"scsj":null,"gsrq":null,"gssj":null,"gsr":null,"gsbm":null,"zfsj":null,"gxsj":null,"csbj":null,"gsyw":"01"},{"id":"50000210000000136567","wfbh":null,"jdslb":null,"jdsbh":null,"gslx":"1","jszh":null,"hpzl":null,"wfgxsj":null,"gsjdsbh":"5036002900786130","gsajmc":"吴禹洲机动车行驶超速50%以上案","gscflb":null,"gscfss":null,"gscfyj":null,"gsjsrxm":"吴禹洲","gshpzl":"小型汽车","gshphm":"渝F72M37","gscfjg":"罚款1000元","gsjf":null,"gscfbm":"重庆市奉节县公安局交通巡逻警察大队","gscfrq":"2017年07月12日","gscfxzqh":null,"gsqymc":null,"gsfrxm":null,"gsshxydm":null,"lczt":null,"scsj":null,"gsrq":null,"gssj":null,"gsr":null,"gsbm":null,"zfsj":null,"gxsj":null,"csbj":null,"gsyw":"01"},{"id":"50000210000000136527","wfbh":null,"jdslb":null,"jdsbh":null,"gslx":"1","jszh":null,"hpzl":null,"wfgxsj":null,"gsjdsbh":"500100290104605X","gsajmc":"李天顺机动车行驶超速50%以上案","gscflb":null,"gscfss":null,"gscfyj":null,"gsjsrxm":"李天顺","gshpzl":"小型汽车","gshphm":"渝ADA475","gscfjg":"罚款1000元","gsjf":null,"gscfbm":"重庆市万州区公安局交通巡逻警察支队","gscfrq":"2017年07月12日","gscfxzqh":null,"gsqymc":null,"gsfrxm":null,"gsshxydm":null,"lczt":null,"scsj":null,"gsrq":null,"gssj":null,"gsr":null,"gsbm":null,"zfsj":null,"gxsj":null,"csbj":null,"gsyw":"01"},{"id":"50000210000000136487","wfbh":null,"jdslb":null,"jdsbh":null,"gslx":"1","jszh":null,"hpzl":null,"wfgxsj":null,"gsjdsbh":"5008002900175817","gsajmc":"姜帆机动车行驶超速50%以上案","gscflb":null,"gscfss":null,"gscfyj":null,"gsjsrxm":"姜帆","gshpzl":"小型汽车","gshphm":"渝B393U1","gscfjg":"罚款1000元","gsjf":null,"gscfbm":"重庆市公安局南岸区分局交通巡逻警察支队","gscfrq":"2017年07月12日","gscfxzqh":null,"gsqymc":null,"gsfrxm":null,"gsshxydm":null,"lczt":null,"scsj":null,"gsrq":null,"gssj":null,"gsr":null,"gsbm":null,"zfsj":null,"gxsj":null,"csbj":null,"gsyw":"01"},{"id":"50000210000000136787","wfbh":null,"jdslb":null,"jdsbh":null,"gslx":"1","jszh":null,"hpzl":null,"wfgxsj":null,"gsjdsbh":"5037002900343842","gsajmc":"崔瀚机动车行驶超速50%以上案","gscflb":null,"gscfss":null,"gscfyj":null,"gsjsrxm":"崔瀚","gshpzl":"小型汽车","gshphm":"渝ATY077","gscfjg":"罚款1000元","gsjf":null,"gscfbm":"重庆市巫山县公安局交通巡逻警察大队","gscfrq":"2017年07月12日","gscfxzqh":null,"gsqymc":null,"gsfrxm":null,"gsshxydm":null,"lczt":null,"scsj":null,"gsrq":null,"gssj":null,"gsr":null,"gsbm":null,"zfsj":null,"gxsj":null,"csbj":null,"gsyw":"01"},{"id":"50000210000000136587","wfbh":null,"jdslb":null,"jdsbh":null,"gslx":"1","jszh":null,"hpzl":null,"wfgxsj":null,"gsjdsbh":"5007002900524715","gsajmc":"庞珍品机动车行驶超速50%以上案","gscflb":null,"gscfss":null,"gscfyj":null,"gsjsrxm":"庞珍品","gshpzl":"小型汽车","gshphm":"渝DV1283","gscfjg":"罚款1000元","gsjf":null,"gscfbm":"重庆市公安局九龙坡区分局交通巡逻警察支队","gscfrq":"2017年07月12日","gscfxzqh":null,"gsqymc":null,"gsfrxm":null,"gsshxydm":null,"lczt":null,"scsj":null,"gsrq":null,"gssj":null,"gsr":null,"gsbm":null,"zfsj":null,"gxsj":null,"csbj":null,"gsyw":"01"},{"id":"50000210000000136627","wfbh":null,"jdslb":null,"jdsbh":null,"gslx":"1","jszh":null,"hpzl":null,"wfgxsj":null,"gsjdsbh":"5014002900198136","gsajmc":"蒋波机动车行驶超速50%以上案","gscflb":null,"gscfss":null,"gscfyj":null,"gsjsrxm":"蒋波","gshpzl":"小型汽车","gshphm":"渝HU7098","gscfjg":"罚款1000元","gsjf":null,"gscfbm":"重庆市黔江区公安局交通巡逻警察支队","gscfrq":"2017年07月12日","gscfxzqh":null,"gsqymc":null,"gsfrxm":null,"gsshxydm":null,"lczt":null,"scsj":null,"gsrq":null,"gssj":null,"gsr":null,"gsbm":null,"zfsj":null,"gxsj":null,"csbj":null,"gsyw":"01"},{"id":"50000210000000137147","wfbh":null,"jdslb":null,"jdsbh":null,"gslx":"1","jszh":null,"hpzl":null,"wfgxsj":null,"gsjdsbh":"503700290034392X","gsajmc":"刘小权醉酒后驾驶机动车案","gscflb":null,"gscfss":null,"gscfyj":null,"gsjsrxm":"刘小权","gshpzl":"","gshphm":"无","gscfjg":"其他处罚","gsjf":null,"gscfbm":"重庆市巫山县公安局交通巡逻警察大队","gscfrq":"2017年07月12日","gscfxzqh":null,"gsqymc":null,"gsfrxm":null,"gsshxydm":null,"lczt":null,"scsj":null,"gsrq":null,"gssj":null,"gsr":null,"gsbm":null,"zfsj":null,"gxsj":null,"csbj":null,"gsyw":"01"},{"id":"50000210000000133447","wfbh":null,"jdslb":null,"jdsbh":null,"gslx":"1","jszh":null,"hpzl":null,"wfgxsj":null,"gsjdsbh":"5001002901044333","gsajmc":"刘友安醉酒后驾驶机动车案","gscflb":null,"gscfss":null,"gscfyj":null,"gsjsrxm":"刘友安","gshpzl":"小型汽车","gshphm":"渝FY3286","gscfjg":"吊销驾驶证","gsjf":null,"gscfbm":"重庆市万州区公安局交通巡逻警察支队","gscfrq":"2017年07月11日","gscfxzqh":null,"gsqymc":null,"gsfrxm":null,"gsshxydm":null,"lczt":null,"scsj":null,"gsrq":null,"gssj":null,"gsr":null,"gsbm":null,"zfsj":null,"gxsj":null,"csbj":null,"gsyw":"01"},{"id":"50000210000000133747","wfbh":null,"jdslb":null,"jdsbh":null,"gslx":"1","jszh":null,"hpzl":null,"wfgxsj":null,"gsjdsbh":"504100290019223X","gsajmc":"冉旭平机动车行驶超速50%以上案","gscflb":null,"gscfss":null,"gscfyj":null,"gsjsrxm":"冉旭平","gshpzl":"小型汽车","gshphm":"渝A18A01","gscfjg":"罚款1000元","gsjf":null,"gscfbm":"重庆市秀山土家族苗族自治县公安局交通巡逻警察大队","gscfrq":"2017年07月11日","gscfxzqh":null,"gsqymc":null,"gsfrxm":null,"gsshxydm":null,"lczt":null,"scsj":null,"gsrq":null,"gssj":null,"gsr":null,"gsbm":null,"zfsj":null,"gxsj":null,"csbj":null,"gsyw":"01"},{"id":"50000210000000137327","wfbh":null,"jdslb":null,"jdsbh":null,"gslx":"1","jszh":null,"hpzl":null,"wfgxsj":null,"gsjdsbh":"5036002900786394","gsajmc":"朱贞容机动车行驶超速50%以上案","gscflb":null,"gscfss":null,"gscfyj":null,"gsjsrxm":"朱贞容","gshpzl":"小型汽车","gshphm":"川A83XL0","gscfjg":"罚款1000元","gsjf":null,"gscfbm":"重庆市奉节县公安局交通巡逻警察大队","gscfrq":"2017年07月12日","gscfxzqh":null,"gsqymc":null,"gsfrxm":null,"gsshxydm":null,"lczt":null,"scsj":null,"gsrq":null,"gssj":null,"gsr":null,"gsbm":null,"zfsj":null,"gxsj":null,"csbj":null,"gsyw":"01"},{"id":"50000210000000133687","wfbh":null,"jdslb":null,"jdsbh":null,"gslx":"1","jszh":null,"hpzl":null,"wfgxsj":null,"gsjdsbh":"5006002900269020","gsajmc":"陈柯机动车行驶超速50%以上案","gscflb":null,"gscfss":null,"gscfyj":null,"gsjsrxm":"陈柯","gshpzl":"小型汽车","gshphm":"鄂D9J851","gscfjg":"罚款1000元","gsjf":null,"gscfbm":"重庆市公安局沙坪坝区分局交通巡逻警察支队","gscfrq":"2017年07月11日","gscfxzqh":null,"gsqymc":null,"gsfrxm":null,"gsshxydm":null,"lczt":null,"scsj":null,"gsrq":null,"gssj":null,"gsr":null,"gsbm":null,"zfsj":null,"gxsj":null,"csbj":null,"gsyw":"01"},{"id":"50000210000000137227","wfbh":null,"jdslb":null,"jdsbh":null,"gslx":"1","jszh":null,"hpzl":null,"wfgxsj":null,"gsjdsbh":"5006002900269372","gsajmc":"周绍友机动车行驶超速50%以上案","gscflb":null,"gscfss":null,"gscfyj":null,"gsjsrxm":"周绍友","gshpzl":"小型汽车","gshphm":"渝DV8586","gscfjg":"罚款1500元","gsjf":null,"gscfbm":"重庆市公安局沙坪坝区分局交通巡逻警察支队","gscfrq":"2017年07月12日","gscfxzqh":null,"gsqymc":null,"gsfrxm":null,"gsshxydm":null,"lczt":null,"scsj":null,"gsrq":null,"gssj":null,"gsr":null,"gsbm":null,"zfsj":null,"gxsj":null,"csbj":null,"gsyw":"01"},{"id":"50000210000000137367","wfbh":null,"jdslb":null,"jdsbh":null,"gslx":"1","jszh":null,"hpzl":null,"wfgxsj":null,"gsjdsbh":"5017002900193186","gsajmc":"李中灯机动车行驶超速50%以上案","gscflb":null,"gscfss":null,"gscfyj":null,"gsjsrxm":"李中灯","gshpzl":"小型汽车","gshphm":"川A11TN4","gscfjg":"罚款1000元","gsjf":null,"gscfbm":"重庆市合川区公安局交通巡逻警察支队","gscfrq":"2017年07月12日","gscfxzqh":null,"gsqymc":null,"gsfrxm":null,"gsshxydm":null,"lczt":null,"scsj":null,"gsrq":null,"gssj":null,"gsr":null,"gsbm":null,"zfsj":null,"gxsj":null,"csbj":null,"gsyw":"01"},{"id":"50000210000000133507","wfbh":null,"jdslb":null,"jdsbh":null,"gslx":"1","jszh":null,"hpzl":null,"wfgxsj":null,"gsjdsbh":"5002002900402703","gsajmc":"彭苏洲醉酒后驾驶机动车案","gscflb":null,"gscfss":null,"gscfyj":null,"gsjsrxm":"彭苏洲","gshpzl":"小型汽车","gshphm":"渝GL6697","gscfjg":"吊销驾驶证","gsjf":null,"gscfbm":"重庆市涪陵区公安局交通巡逻警察支队","gscfrq":"2017年07月11日","gscfxzqh":null,"gsqymc":null,"gsfrxm":null,"gsshxydm":null,"lczt":null,"scsj":null,"gsrq":null,"gssj":null,"gsr":null,"gsbm":null,"zfsj":null,"gxsj":null,"csbj":null,"gsyw":"01"},{"id":"50000210000000116047","wfbh":null,"jdslb":null,"jdsbh":null,"gslx":"1","jszh":null,"hpzl":null,"wfgxsj":null,"gsjdsbh":"5036002900780377","gsajmc":"李菁林机动车行驶超速50%以上案","gscflb":null,"gscfss":null,"gscfyj":null,"gsjsrxm":"李菁林","gshpzl":"小型汽车","gshphm":"渝FQ6595","gscfjg":"罚款1000元","gsjf":null,"gscfbm":"重庆市奉节县公安局交通巡逻警察大队","gscfrq":"2017年07月03日","gscfxzqh":null,"gsqymc":null,"gsfrxm":null,"gsshxydm":null,"lczt":null,"scsj":null,"gsrq":null,"gssj":null,"gsr":null,"gsbm":null,"zfsj":null,"gxsj":null,"csbj":null,"gsyw":"01"},{"id":"50000210000000118107","wfbh":null,"jdslb":null,"jdsbh":null,"gslx":"1","jszh":null,"hpzl":null,"wfgxsj":null,"gsjdsbh":"5018002900618501","gsajmc":"廖扬琅交通肇事逃逸案","gscflb":null,"gscfss":null,"gscfyj":null,"gsjsrxm":"廖扬琅","gshpzl":"小型汽车","gshphm":"渝D88D23","gscfjg":"行政拘留天，并处罚款1000元","gsjf":null,"gscfbm":"重庆市永川区公安局交通巡逻警察支队","gscfrq":"2017年07月03日","gscfxzqh":null,"gsqymc":null,"gsfrxm":null,"gsshxydm":null,"lczt":null,"scsj":null,"gsrq":null,"gssj":null,"gsr":null,"gsbm":null,"zfsj":null,"gxsj":null,"csbj":null,"gsyw":"01"},{"id":"50000210000000118007","wfbh":null,"jdslb":null,"jdsbh":null,"gslx":"1","jszh":null,"hpzl":null,"wfgxsj":null,"gsjdsbh":"5036002900780850","gsajmc":"王华丽机动车行驶超速50%以上案","gscflb":null,"gscfss":null,"gscfyj":null,"gsjsrxm":"王华丽","gshpzl":"小型汽车","gshphm":"渝F0Q068","gscfjg":"罚款1000元","gsjf":null,"gscfbm":"重庆市奉节县公安局交通巡逻警察大队","gscfrq":"2017年07月03日","gscfxzqh":null,"gsqymc":null,"gsfrxm":null,"gsshxydm":null,"lczt":null,"scsj":null,"gsrq":null,"gssj":null,"gsr":null,"gsbm":null,"zfsj":null,"gxsj":null,"csbj":null,"gsyw":"01"},{"id":"50000210000000117907","wfbh":null,"jdslb":null,"jdsbh":null,"gslx":"1","jszh":null,"hpzl":null,"wfgxsj":null,"gsjdsbh":"5021002900236273","gsajmc":"申太明机动车行驶超速50%以上案","gscflb":null,"gscfss":null,"gscfyj":null,"gsjsrxm":"申太明","gshpzl":"小型汽车","gshphm":"渝AWQ674","gscfjg":"罚款1000元","gsjf":null,"gscfbm":"重庆市两江新区公安局交通巡逻警察支队","gscfrq":"2017年07月03日","gscfxzqh":null,"gsqymc":null,"gsfrxm":null,"gsshxydm":null,"lczt":null,"scsj":null,"gsrq":null,"gssj":null,"gsr":null,"gsbm":null,"zfsj":null,"gxsj":null,"csbj":null,"gsyw":"01"}],"first":false,"sort":null,"pageSize":20,"pageNo":269,"totalCount":15787,"last":false,"totalPages":790,"resultSize":20}},"code":200}