{"message":"操作成功！","data":{"list":{"content":[{"id":"50000210000000264932","wfbh":null,"jdslb":null,"jdsbh":null,"gslx":"1","jszh":null,"hpzl":null,"wfgxsj":null,"gsjdsbh":"5029002900034720","gsajmc":"冉启均机动车行驶超速50%以上案","gscflb":null,"gscfss":null,"gscfyj":null,"gsjsrxm":"冉启均","gshpzl":"小型汽车","gshphm":"渝ABM456","gscfjg":"罚款1000元","gsjf":null,"gscfbm":"重庆市城口县公安局交通巡逻警察大队","gscfrq":"2017年09月21日","gscfxzqh":null,"gsqymc":null,"gsfrxm":null,"gsshxydm":null,"lczt":null,"scsj":null,"gsrq":null,"gssj":null,"gsr":null,"gsbm":null,"zfsj":null,"gxsj":null,"csbj":null,"gsyw":"01"},{"id":"50000210000000264549","wfbh":null,"jdslb":null,"jdsbh":null,"gslx":"1","jszh":null,"hpzl":null,"wfgxsj":null,"gsjdsbh":"5034002900609569","gsajmc":"段益成无有效机动车驾驶证驾驶机动车案","gscflb":null,"gscfss":null,"gscfyj":null,"gsjsrxm":"段益成","gshpzl":"小型汽车","gshphm":"渝F730R0","gscfjg":"行政拘留天，并处罚款2000元","gsjf":null,"gscfbm":"重庆市开州区公安局交通巡逻警察支队","gscfrq":"2017年09月21日","gscfxzqh":null,"gsqymc":null,"gsfrxm":null,"gsshxydm":null,"lczt":null,"scsj":null,"gsrq":null,"gssj":null,"gsr":null,"gsbm":null,"zfsj":null,"gxsj":null,"csbj":null,"gsyw":"01"},{"id":"50000210000000265189","wfbh":null,"jdslb":null,"jdsbh":null,"gslx":"1","jszh":null,"hpzl":null,"wfgxsj":null,"gsjdsbh":"5023002900122995","gsajmc":"唐伟机动车行驶超速50%以上案","gscflb":null,"gscfss":null,"gscfyj":null,"gsjsrxm":"唐伟","gshpzl":"小型汽车","gshphm":"渝CSL656","gscfjg":"罚款1000元","gsjf":null,"gscfbm":"重庆市潼南区公安局交通巡逻警察支队","gscfrq":"2017年09月21日","gscfxzqh":null,"gsqymc":null,"gsfrxm":null,"gsshxydm":null,"lczt":null,"scsj":null,"gsrq":null,"gssj":null,"gsr":null,"gsbm":null,"zfsj":null,"gxsj":null,"csbj":null,"gsyw":"01"},{"id":"50000210000000265268","wfbh":null,"jdslb":null,"jdsbh":null,"gslx":"1","jszh":null,"hpzl":null,"wfgxsj":null,"gsjdsbh":"5023002900123017","gsajmc":"李家友机动车行驶超速50%以上案","gscflb":null,"gscfss":null,"gscfyj":null,"gsjsrxm":"李家友","gshpzl":"小型汽车","gshphm":"渝CHP077","gscfjg":"罚款1000元","gsjf":null,"gscfbm":"重庆市潼南区公安局交通巡逻警察支队","gscfrq":"2017年09月21日","gscfxzqh":null,"gsqymc":null,"gsfrxm":null,"gsshxydm":null,"lczt":null,"scsj":null,"gsrq":null,"gssj":null,"gsr":null,"gsbm":null,"zfsj":null,"gxsj":null,"csbj":null,"gsyw":"01"},{"id":"50000210000000265208","wfbh":null,"jdslb":null,"jdsbh":null,"gslx":"1","jszh":null,"hpzl":null,"wfgxsj":null,"gsjdsbh":"5043002900072076","gsajmc":"何建文机动车行驶超速50%以上案","gscflb":null,"gscfss":null,"gscfyj":null,"gsjsrxm":"何建文","gshpzl":"小型汽车","gshphm":"渝HL2088","gscfjg":"罚款1000元","gsjf":null,"gscfbm":"彭水苗族土家族自治县公安局交通巡逻警察大队","gscfrq":"2017年09月21日","gscfxzqh":null,"gsqymc":null,"gsfrxm":null,"gsshxydm":null,"lczt":null,"scsj":null,"gsrq":null,"gssj":null,"gsr":null,"gsbm":null,"zfsj":null,"gxsj":null,"csbj":null,"gsyw":"01"},{"id":"50000210000000265588","wfbh":null,"jdslb":null,"jdsbh":null,"gslx":"1","jszh":null,"hpzl":null,"wfgxsj":null,"gsjdsbh":"5035002900826082","gsajmc":"黄舟机动车行驶超速50%以上案","gscflb":null,"gscfss":null,"gscfyj":null,"gsjsrxm":"黄舟","gshpzl":"小型汽车","gshphm":"渝F66K52","gscfjg":"罚款1000元","gsjf":null,"gscfbm":"重庆市云阳县公安局交通巡逻警察大队","gscfrq":"2017年09月21日","gscfxzqh":null,"gsqymc":null,"gsfrxm":null,"gsshxydm":null,"lczt":null,"scsj":null,"gsrq":null,"gssj":null,"gsr":null,"gsbm":null,"zfsj":null,"gxsj":null,"csbj":null,"gsyw":"01"},{"id":"50000210000000264488","wfbh":null,"jdslb":null,"jdsbh":null,"gslx":"1","jszh":null,"hpzl":null,"wfgxsj":null,"gsjdsbh":"5001002901119859","gsajmc":"张璐无有效机动车驾驶证驾驶机动车案","gscflb":null,"gscfss":null,"gscfyj":null,"gsjsrxm":"张璐","gshpzl":"小型汽车","gshphm":"渝FPL960","gscfjg":"行政拘留天，并处罚款1500元","gsjf":null,"gscfbm":"重庆市万州区公安局交通巡逻警察支队","gscfrq":"2017年09月21日","gscfxzqh":null,"gsqymc":null,"gsfrxm":null,"gsshxydm":null,"lczt":null,"scsj":null,"gsrq":null,"gssj":null,"gsr":null,"gsbm":null,"zfsj":null,"gxsj":null,"csbj":null,"gsyw":"01"},{"id":"50000210000000264768","wfbh":null,"jdslb":null,"jdsbh":null,"gslx":"1","jszh":null,"hpzl":null,"wfgxsj":null,"gsjdsbh":"5036002900836730","gsajmc":"冉凌嘉机动车行驶超速50%以上案","gscflb":null,"gscfss":null,"gscfyj":null,"gsjsrxm":"冉凌嘉","gshpzl":"小型汽车","gshphm":"渝D2B310","gscfjg":"罚款1000元","gsjf":null,"gscfbm":"重庆市奉节县公安局交通巡逻警察大队","gscfrq":"2017年09月21日","gscfxzqh":null,"gsqymc":null,"gsfrxm":null,"gsshxydm":null,"lczt":null,"scsj":null,"gsrq":null,"gssj":null,"gsr":null,"gsbm":null,"zfsj":null,"gxsj":null,"csbj":null,"gsyw":"01"},{"id":"50000210000000265028","wfbh":null,"jdslb":null,"jdsbh":null,"gslx":"1","jszh":null,"hpzl":null,"wfgxsj":null,"gsjdsbh":"5007002900542348","gsajmc":"杜伦全机动车行驶超速50%以上案","gscflb":null,"gscfss":null,"gscfyj":null,"gsjsrxm":"杜伦全","gshpzl":"小型汽车","gshphm":"渝BZL569","gscfjg":"罚款1000元","gsjf":null,"gscfbm":"重庆市公安局九龙坡区分局交通巡逻警察支队","gscfrq":"2017年09月21日","gscfxzqh":null,"gsqymc":null,"gsfrxm":null,"gsshxydm":null,"lczt":null,"scsj":null,"gsrq":null,"gssj":null,"gsr":null,"gsbm":null,"zfsj":null,"gxsj":null,"csbj":null,"gsyw":"01"},{"id":"50000210000000264688","wfbh":null,"jdslb":null,"jdsbh":null,"gslx":"1","jszh":null,"hpzl":null,"wfgxsj":null,"gsjdsbh":"5006002900277171","gsajmc":"李美安无有效机动车驾驶证驾驶机动车案","gscflb":null,"gscfss":null,"gscfyj":null,"gsjsrxm":"李美安","gshpzl":"小型汽车","gshphm":"渝F20Z31","gscfjg":"行政拘留天，并处罚款2000元","gsjf":null,"gscfbm":"重庆市公安局沙坪坝区分局交通巡逻警察支队","gscfrq":"2017年09月21日","gscfxzqh":null,"gsqymc":null,"gsfrxm":null,"gsshxydm":null,"lczt":null,"scsj":null,"gsrq":null,"gssj":null,"gsr":null,"gsbm":null,"zfsj":null,"gxsj":null,"csbj":null,"gsyw":"01"},{"id":"50000210000000265868","wfbh":null,"jdslb":null,"jdsbh":null,"gslx":"1","jszh":null,"hpzl":null,"wfgxsj":null,"gsjdsbh":"5034002900609910","gsajmc":"程绪明机动车行驶超速50%以上案","gscflb":null,"gscfss":null,"gscfyj":null,"gsjsrxm":"程绪明","gshpzl":"小型汽车","gshphm":"渝CRT998","gscfjg":"罚款1000元","gsjf":null,"gscfbm":"重庆市开州区公安局交通巡逻警察支队","gscfrq":"2017年09月21日","gscfxzqh":null,"gsqymc":null,"gsfrxm":null,"gsshxydm":null,"lczt":null,"scsj":null,"gsrq":null,"gssj":null,"gsr":null,"gsbm":null,"zfsj":null,"gxsj":null,"csbj":null,"gsyw":"01"},{"id":"50000210000000264428","wfbh":null,"jdslb":null,"jdsbh":null,"gslx":"1","jszh":null,"hpzl":null,"wfgxsj":null,"gsjdsbh":"5028002900320368","gsajmc":"陈方毅机动车行驶超速50%以上案","gscflb":null,"gscfss":null,"gscfyj":null,"gsjsrxm":"陈方毅","gshpzl":"小型汽车","gshphm":"渝FT8392","gscfjg":"罚款1000元","gsjf":null,"gscfbm":"重庆市梁平区公安局交通巡逻警察支队","gscfrq":"2017年09月21日","gscfxzqh":null,"gsqymc":null,"gsfrxm":null,"gsshxydm":null,"lczt":null,"scsj":null,"gsrq":null,"gssj":null,"gsr":null,"gsbm":null,"zfsj":null,"gxsj":null,"csbj":null,"gsyw":"01"},{"id":"50000210000000265068","wfbh":null,"jdslb":null,"jdsbh":null,"gslx":"1","jszh":null,"hpzl":null,"wfgxsj":null,"gsjdsbh":"5023002900122929","gsajmc":"陈啟龙机动车行驶超速50%以上案","gscflb":null,"gscfss":null,"gscfyj":null,"gsjsrxm":"陈啟龙","gshpzl":"小型汽车","gshphm":"渝CE8262","gscfjg":"罚款1000元","gsjf":null,"gscfbm":"重庆市潼南区公安局交通巡逻警察支队","gscfrq":"2017年09月21日","gscfxzqh":null,"gsqymc":null,"gsfrxm":null,"gsshxydm":null,"lczt":null,"scsj":null,"gsrq":null,"gssj":null,"gsr":null,"gsbm":null,"zfsj":null,"gxsj":null,"csbj":null,"gsyw":"01"},{"id":"50000210000000265508","wfbh":null,"jdslb":null,"jdsbh":null,"gslx":"1","jszh":null,"hpzl":null,"wfgxsj":null,"gsjdsbh":"5006002900277215","gsajmc":"叶小东机动车行驶超速50%以上案","gscflb":null,"gscfss":null,"gscfyj":null,"gsjsrxm":"叶小东","gshpzl":"小型汽车","gshphm":"渝A717G0","gscfjg":"罚款1000元","gsjf":null,"gscfbm":"重庆市公安局沙坪坝区分局交通巡逻警察支队","gscfrq":"2017年09月21日","gscfxzqh":null,"gsqymc":null,"gsfrxm":null,"gsshxydm":null,"lczt":null,"scsj":null,"gsrq":null,"gssj":null,"gsr":null,"gsbm":null,"zfsj":null,"gxsj":null,"csbj":null,"gsyw":"01"},{"id":"50000210000000265709","wfbh":null,"jdslb":null,"jdsbh":null,"gslx":"1","jszh":null,"hpzl":null,"wfgxsj":null,"gsjdsbh":"5003002900533713","gsajmc":"池凯灵机动车行驶超速50%以上案","gscflb":null,"gscfss":null,"gscfyj":null,"gsjsrxm":"池凯灵","gshpzl":"小型汽车","gshphm":"渝A02X98","gscfjg":"罚款1000元","gsjf":null,"gscfbm":"重庆市公安局渝中区分局交通巡逻警察支队","gscfrq":"2017年09月21日","gscfxzqh":null,"gsqymc":null,"gsfrxm":null,"gsshxydm":null,"lczt":null,"scsj":null,"gsrq":null,"gssj":null,"gsr":null,"gsbm":null,"zfsj":null,"gxsj":null,"csbj":null,"gsyw":"01"},{"id":"50000210000000264548","wfbh":null,"jdslb":null,"jdsbh":null,"gslx":"1","jszh":null,"hpzl":null,"wfgxsj":null,"gsjdsbh":"5034002900609569","gsajmc":"段益成醉酒后驾驶机动车案","gscflb":null,"gscfss":null,"gscfyj":null,"gsjsrxm":"段益成","gshpzl":"小型汽车","gshphm":"渝F730R0","gscfjg":"其他处罚","gsjf":null,"gscfbm":"重庆市开州区公安局交通巡逻警察支队","gscfrq":"2017年09月21日","gscfxzqh":null,"gsqymc":null,"gsfrxm":null,"gsshxydm":null,"lczt":null,"scsj":null,"gsrq":null,"gssj":null,"gsr":null,"gsbm":null,"zfsj":null,"gxsj":null,"csbj":null,"gsyw":"01"},{"id":"50000210000000265788","wfbh":null,"jdslb":null,"jdsbh":null,"gslx":"1","jszh":null,"hpzl":null,"wfgxsj":null,"gsjdsbh":"5003002900533735","gsajmc":"陈晓荣机动车行驶超速50%以上案","gscflb":null,"gscfss":null,"gscfyj":null,"gsjsrxm":"陈晓荣","gshpzl":"小型汽车","gshphm":"渝BNR978","gscfjg":"罚款1000元","gsjf":null,"gscfbm":"重庆市公安局渝中区分局交通巡逻警察支队","gscfrq":"2017年09月21日","gscfxzqh":null,"gsqymc":null,"gsfrxm":null,"gsshxydm":null,"lczt":null,"scsj":null,"gsrq":null,"gssj":null,"gsr":null,"gsbm":null,"zfsj":null,"gxsj":null,"csbj":null,"gsyw":"01"},{"id":"50000210000000263948","wfbh":null,"jdslb":null,"jdsbh":null,"gslx":"1","jszh":null,"hpzl":null,"wfgxsj":null,"gsjdsbh":"5035002900825675","gsajmc":"谭仁富醉酒后驾驶机动车案","gscflb":null,"gscfss":null,"gscfyj":null,"gsjsrxm":"谭仁富","gshpzl":"小型汽车","gshphm":"渝F9P891","gscfjg":"吊销驾驶证","gsjf":null,"gscfbm":"重庆市云阳县公安局交通巡逻警察大队","gscfrq":"2017年09月20日","gscfxzqh":null,"gsqymc":null,"gsfrxm":null,"gsshxydm":null,"lczt":null,"scsj":null,"gsrq":null,"gssj":null,"gsr":null,"gsbm":null,"zfsj":null,"gxsj":null,"csbj":null,"gsyw":"01"},{"id":"50000210000000265388","wfbh":null,"jdslb":null,"jdsbh":null,"gslx":"1","jszh":null,"hpzl":null,"wfgxsj":null,"gsjdsbh":"5016002900244710","gsajmc":"曹阳饮酒后或醉酒驾驶机动车造成交通事故案","gscflb":null,"gscfss":null,"gscfyj":null,"gsjsrxm":"曹阳","gshpzl":"小型汽车","gshphm":"渝B039J3","gscfjg":"吊销驾驶证","gsjf":null,"gscfbm":"重庆市江津区公安局交通巡逻警察支队","gscfrq":"2017年09月21日","gscfxzqh":null,"gsqymc":null,"gsfrxm":null,"gsshxydm":null,"lczt":null,"scsj":null,"gsrq":null,"gssj":null,"gsr":null,"gsbm":null,"zfsj":null,"gxsj":null,"csbj":null,"gsyw":"01"},{"id":"50000210000000265230","wfbh":null,"jdslb":null,"jdsbh":null,"gslx":"1","jszh":null,"hpzl":null,"wfgxsj":null,"gsjdsbh":"5045002900004767","gsajmc":"程成以欺骗、贿赂手段取得驾驶证的案","gscflb":null,"gscfss":null,"gscfyj":null,"gsjsrxm":"程成","gshpzl":"","gshphm":"无","gscfjg":"撤销机动车驾驶许可","gsjf":null,"gscfbm":"重庆市公安局交通巡逻警察总队特勤支队","gscfrq":"2017年09月21日","gscfxzqh":null,"gsqymc":null,"gsfrxm":null,"gsshxydm":null,"lczt":null,"scsj":null,"gsrq":null,"gssj":null,"gsr":null,"gsbm":null,"zfsj":null,"gxsj":null,"csbj":null,"gsyw":"01"}],"first":false,"sort":null,"pageSize":20,"pageNo":48,"totalCount":2378,"last":false,"totalPages":119,"resultSize":20}},"code":200}