{"message":"操作成功！","data":{"list":{"content":[{"id":"50000210000000190627","wfbh":null,"jdslb":null,"jdsbh":null,"gslx":"1","jszh":null,"hpzl":null,"wfgxsj":null,"gsjdsbh":"5021002900240464","gsajmc":"柳后祥机动车行驶超速50%以上案","gscflb":null,"gscfss":null,"gscfyj":null,"gsjsrxm":"柳后祥","gshpzl":"小型汽车","gshphm":"渝D2N098","gscfjg":"罚款1000元","gsjf":null,"gscfbm":"重庆市两江新区公安局交通巡逻警察支队","gscfrq":"2017年08月10日","gscfxzqh":null,"gsqymc":null,"gsfrxm":null,"gsshxydm":null,"lczt":null,"scsj":null,"gsrq":null,"gssj":null,"gsr":null,"gsbm":null,"zfsj":null,"gxsj":null,"csbj":null,"gsyw":"01"},{"id":"50000210000000190607","wfbh":null,"jdslb":null,"jdsbh":null,"gslx":"1","jszh":null,"hpzl":null,"wfgxsj":null,"gsjdsbh":"5012002900400503","gsajmc":"贺建波机动车行驶超速50%以上案","gscflb":null,"gscfss":null,"gscfyj":null,"gsjsrxm":"贺建波","gshpzl":"小型汽车","gshphm":"渝A293N0","gscfjg":"罚款1000元","gsjf":null,"gscfbm":"重庆市公安局渝北区分局交通巡逻警察支队","gscfrq":"2017年08月10日","gscfxzqh":null,"gsqymc":null,"gsfrxm":null,"gsshxydm":null,"lczt":null,"scsj":null,"gsrq":null,"gssj":null,"gsr":null,"gsbm":null,"zfsj":null,"gxsj":null,"csbj":null,"gsyw":"01"},{"id":"50000210000000190628","wfbh":null,"jdslb":null,"jdsbh":null,"gslx":"1","jszh":null,"hpzl":null,"wfgxsj":null,"gsjdsbh":"5036002900803994","gsajmc":"刘宇机动车行驶超速50%以上案","gscflb":null,"gscfss":null,"gscfyj":null,"gsjsrxm":"刘宇","gshpzl":"小型汽车","gshphm":"渝FLY915","gscfjg":"罚款1000元","gsjf":null,"gscfbm":"重庆市奉节县公安局交通巡逻警察大队","gscfrq":"2017年08月10日","gscfxzqh":null,"gsqymc":null,"gsfrxm":null,"gsshxydm":null,"lczt":null,"scsj":null,"gsrq":null,"gssj":null,"gsr":null,"gsbm":null,"zfsj":null,"gxsj":null,"csbj":null,"gsyw":"01"},{"id":"50000210000000190647","wfbh":null,"jdslb":null,"jdsbh":null,"gslx":"1","jszh":null,"hpzl":null,"wfgxsj":null,"gsjdsbh":"5003002900525584","gsajmc":"刘剑锋醉酒后驾驶机动车案","gscflb":null,"gscfss":null,"gscfyj":null,"gsjsrxm":"刘剑锋","gshpzl":"普通摩托车","gshphm":"渝C91R60","gscfjg":"吊销驾驶证","gsjf":null,"gscfbm":"重庆市公安局渝中区分局交通巡逻警察支队","gscfrq":"2017年08月10日","gscfxzqh":null,"gsqymc":null,"gsfrxm":null,"gsshxydm":null,"lczt":null,"scsj":null,"gsrq":null,"gssj":null,"gsr":null,"gsbm":null,"zfsj":null,"gxsj":null,"csbj":null,"gsyw":"01"},{"id":"50000210000000190510","wfbh":null,"jdslb":null,"jdsbh":null,"gslx":"1","jszh":null,"hpzl":null,"wfgxsj":null,"gsjdsbh":"5001002901080831","gsajmc":"刘诗杰机动车行驶超速50%以上案","gscflb":null,"gscfss":null,"gscfyj":null,"gsjsrxm":"刘诗杰","gshpzl":"小型汽车","gshphm":"渝FMG925","gscfjg":"罚款1000元","gsjf":null,"gscfbm":"重庆市万州区公安局交通巡逻警察支队","gscfrq":"2017年08月10日","gscfxzqh":null,"gsqymc":null,"gsfrxm":null,"gsshxydm":null,"lczt":null,"scsj":null,"gsrq":null,"gssj":null,"gsr":null,"gsbm":null,"zfsj":null,"gxsj":null,"csbj":null,"gsyw":"01"},{"id":"50000210000000190667","wfbh":null,"jdslb":null,"jdsbh":null,"gslx":"1","jszh":null,"hpzl":null,"wfgxsj":null,"gsjdsbh":"5009002900250870","gsajmc":"贺梦尧机动车行驶超速50%以上案","gscflb":null,"gscfss":null,"gscfyj":null,"gsjsrxm":"贺梦尧","gshpzl":"小型汽车","gshphm":"渝B8K203","gscfjg":"罚款1000元","gsjf":null,"gscfbm":"重庆市公安局北碚区分局交通巡逻警察支队","gscfrq":"2017年08月10日","gscfxzqh":null,"gsqymc":null,"gsfrxm":null,"gsshxydm":null,"lczt":null,"scsj":null,"gsrq":null,"gssj":null,"gsr":null,"gsbm":null,"zfsj":null,"gxsj":null,"csbj":null,"gsyw":"01"},{"id":"50000210000000190568","wfbh":null,"jdslb":null,"jdsbh":null,"gslx":"1","jszh":null,"hpzl":null,"wfgxsj":null,"gsjdsbh":"500200290040574X","gsajmc":"张立飞醉酒后驾驶机动车案","gscflb":null,"gscfss":null,"gscfyj":null,"gsjsrxm":"张立飞","gshpzl":"普通摩托车","gshphm":"渝GAV253","gscfjg":"吊销驾驶证","gsjf":null,"gscfbm":"重庆市涪陵区公安局交通巡逻警察支队","gscfrq":"2017年08月10日","gscfxzqh":null,"gsqymc":null,"gsfrxm":null,"gsshxydm":null,"lczt":null,"scsj":null,"gsrq":null,"gssj":null,"gsr":null,"gsbm":null,"zfsj":null,"gxsj":null,"csbj":null,"gsyw":"01"},{"id":"50000210000000050387","wfbh":null,"jdslb":null,"jdsbh":null,"gslx":"1","jszh":null,"hpzl":null,"wfgxsj":null,"gsjdsbh":"503700290032995X","gsajmc":"向荣机动车行驶超速50%以上案","gscflb":null,"gscfss":null,"gscfyj":null,"gsjsrxm":"向荣","gshpzl":"小型汽车","gshphm":"渝F857F5","gscfjg":"罚款1000元","gsjf":null,"gscfbm":"重庆市巫山县公安局交通巡逻警察大队","gscfrq":"2017年05月22日","gscfxzqh":null,"gsqymc":null,"gsfrxm":null,"gsshxydm":null,"lczt":null,"scsj":null,"gsrq":null,"gssj":null,"gsr":null,"gsbm":null,"zfsj":null,"gxsj":null,"csbj":null,"gsyw":"01"},{"id":"50000210000000050087","wfbh":null,"jdslb":null,"jdsbh":null,"gslx":"1","jszh":null,"hpzl":null,"wfgxsj":null,"gsjdsbh":"5036002900761985","gsajmc":"张晓枚机动车行驶超速50%以上案","gscflb":null,"gscfss":null,"gscfyj":null,"gsjsrxm":"张晓枚","gshpzl":"小型汽车","gshphm":"渝FU1000","gscfjg":"罚款1000元","gsjf":null,"gscfbm":"重庆市奉节县公安局交通巡逻警察大队","gscfrq":"2017年05月22日","gscfxzqh":null,"gsqymc":null,"gsfrxm":null,"gsshxydm":null,"lczt":null,"scsj":null,"gsrq":null,"gssj":null,"gsr":null,"gsbm":null,"zfsj":null,"gxsj":null,"csbj":null,"gsyw":"01"},{"id":"50000210000000050167","wfbh":null,"jdslb":null,"jdsbh":null,"gslx":"1","jszh":null,"hpzl":null,"wfgxsj":null,"gsjdsbh":"5026002900233699","gsajmc":"廖莉无有效机动车驾驶证驾驶机动车案","gscflb":null,"gscfss":null,"gscfyj":null,"gsjsrxm":"廖莉","gshpzl":"小型汽车","gshphm":"渝C8K710","gscfjg":"行政拘留天，并处罚款2000元","gsjf":null,"gscfbm":"重庆市荣昌区公安局交通巡逻警察支队","gscfrq":"2017年05月22日","gscfxzqh":null,"gsqymc":null,"gsfrxm":null,"gsshxydm":null,"lczt":null,"scsj":null,"gsrq":null,"gssj":null,"gsr":null,"gsbm":null,"zfsj":null,"gxsj":null,"csbj":null,"gsyw":"01"},{"id":"50000210000000050187","wfbh":null,"jdslb":null,"jdsbh":null,"gslx":"1","jszh":null,"hpzl":null,"wfgxsj":null,"gsjdsbh":"500100290097213X","gsajmc":"潘鑫机动车行驶超速50%以上案","gscflb":null,"gscfss":null,"gscfyj":null,"gsjsrxm":"潘鑫","gshpzl":"小型汽车","gshphm":"渝F2Y825","gscfjg":"罚款1000元","gsjf":null,"gscfbm":"重庆市万州区公安局交通巡逻警察支队","gscfrq":"2017年05月22日","gscfxzqh":null,"gsqymc":null,"gsfrxm":null,"gsshxydm":null,"lczt":null,"scsj":null,"gsrq":null,"gssj":null,"gsr":null,"gsbm":null,"zfsj":null,"gxsj":null,"csbj":null,"gsyw":"01"},{"id":"50000210000000050127","wfbh":null,"jdslb":null,"jdsbh":null,"gslx":"1","jszh":null,"hpzl":null,"wfgxsj":null,"gsjdsbh":"5037002900329916","gsajmc":"黄敏无有效机动车驾驶证驾驶机动车案","gscflb":null,"gscfss":null,"gscfyj":null,"gsjsrxm":"黄敏","gshpzl":"","gshphm":"无","gscfjg":"行政拘留天，并处罚款200元","gsjf":null,"gscfbm":"重庆市巫山县公安局交通巡逻警察大队","gscfrq":"2017年05月22日","gscfxzqh":null,"gsqymc":null,"gsfrxm":null,"gsshxydm":null,"lczt":null,"scsj":null,"gsrq":null,"gssj":null,"gsr":null,"gsbm":null,"zfsj":null,"gxsj":null,"csbj":null,"gsyw":"01"},{"id":"50000210000000050348","wfbh":null,"jdslb":null,"jdsbh":null,"gslx":"1","jszh":null,"hpzl":null,"wfgxsj":null,"gsjdsbh":"5023002900100192","gsajmc":"张健平机动车行驶超速50%以上案","gscflb":null,"gscfss":null,"gscfyj":null,"gsjsrxm":"张健平","gshpzl":"小型汽车","gshphm":"渝CFE313","gscfjg":"罚款1000元","gsjf":null,"gscfbm":"重庆市潼南区公安局交通巡逻警察支队","gscfrq":"2017年05月22日","gscfxzqh":null,"gsqymc":null,"gsfrxm":null,"gsshxydm":null,"lczt":null,"scsj":null,"gsrq":null,"gssj":null,"gsr":null,"gsbm":null,"zfsj":null,"gxsj":null,"csbj":null,"gsyw":"01"},{"id":"50000210000000050307","wfbh":null,"jdslb":null,"jdsbh":null,"gslx":"1","jszh":null,"hpzl":null,"wfgxsj":null,"gsjdsbh":"5021002900232445","gsajmc":"罗艳机动车行驶超速50%以上案","gscflb":null,"gscfss":null,"gscfyj":null,"gsjsrxm":"罗艳","gshpzl":"小型汽车","gshphm":"渝BSX338","gscfjg":"罚款1000元","gsjf":null,"gscfbm":"重庆市两江新区公安局交通巡逻警察支队","gscfrq":"2017年05月22日","gscfxzqh":null,"gsqymc":null,"gsfrxm":null,"gsshxydm":null,"lczt":null,"scsj":null,"gsrq":null,"gssj":null,"gsr":null,"gsbm":null,"zfsj":null,"gxsj":null,"csbj":null,"gsyw":"01"},{"id":"50000210000000050407","wfbh":null,"jdslb":null,"jdsbh":null,"gslx":"1","jszh":null,"hpzl":null,"wfgxsj":null,"gsjdsbh":"5023002900100225","gsajmc":"邓良毅机动车行驶超速50%以上案","gscflb":null,"gscfss":null,"gscfyj":null,"gsjsrxm":"邓良毅","gshpzl":"小型汽车","gshphm":"渝AEB558","gscfjg":"罚款1000元","gsjf":null,"gscfbm":"重庆市潼南区公安局交通巡逻警察支队","gscfrq":"2017年05月22日","gscfxzqh":null,"gsqymc":null,"gsfrxm":null,"gsshxydm":null,"lczt":null,"scsj":null,"gsrq":null,"gssj":null,"gsr":null,"gsbm":null,"zfsj":null,"gxsj":null,"csbj":null,"gsyw":"01"},{"id":"50000210000000050208","wfbh":null,"jdslb":null,"jdsbh":null,"gslx":"1","jszh":null,"hpzl":null,"wfgxsj":null,"gsjdsbh":"5040002900120520","gsajmc":"蹇丽蓉机动车行驶超速50%以上案","gscflb":null,"gscfss":null,"gscfyj":null,"gsjsrxm":"蹇丽蓉","gshpzl":"小型汽车","gshphm":"渝AST487","gscfjg":"罚款1000元","gsjf":null,"gscfbm":"重庆市石柱土家族自治县公安局交通巡逻警察大队","gscfrq":"2017年05月22日","gscfxzqh":null,"gsqymc":null,"gsfrxm":null,"gsshxydm":null,"lczt":null,"scsj":null,"gsrq":null,"gssj":null,"gsr":null,"gsbm":null,"zfsj":null,"gxsj":null,"csbj":null,"gsyw":"01"},{"id":"50000210000000050327","wfbh":null,"jdslb":null,"jdsbh":null,"gslx":"1","jszh":null,"hpzl":null,"wfgxsj":null,"gsjdsbh":"5024002900207090","gsajmc":"侯华锋机动车行驶超速50%以上案","gscflb":null,"gscfss":null,"gscfyj":null,"gsjsrxm":"侯华锋","gshpzl":"小型汽车","gshphm":"渝CR9719","gscfjg":"罚款1000元","gsjf":null,"gscfbm":"重庆市铜梁区公安局交通巡逻警察支队","gscfrq":"2017年05月22日","gscfxzqh":null,"gsqymc":null,"gsfrxm":null,"gsshxydm":null,"lczt":null,"scsj":null,"gsrq":null,"gssj":null,"gsr":null,"gsbm":null,"zfsj":null,"gxsj":null,"csbj":null,"gsyw":"01"},{"id":"50000210000000050367","wfbh":null,"jdslb":null,"jdsbh":null,"gslx":"1","jszh":null,"hpzl":null,"wfgxsj":null,"gsjdsbh":"5017002900189479","gsajmc":"雷中生醉酒后驾驶机动车案","gscflb":null,"gscfss":null,"gscfyj":null,"gsjsrxm":"雷中生","gshpzl":"小型汽车","gshphm":"渝C9Y952","gscfjg":"吊销驾驶证","gsjf":null,"gscfbm":"重庆市合川区公安局交通巡逻警察支队","gscfrq":"2017年05月22日","gscfxzqh":null,"gsqymc":null,"gsfrxm":null,"gsshxydm":null,"lczt":null,"scsj":null,"gsrq":null,"gssj":null,"gsr":null,"gsbm":null,"zfsj":null,"gxsj":null,"csbj":null,"gsyw":"01"},{"id":"50000210000000050247","wfbh":null,"jdslb":null,"jdsbh":null,"gslx":"1","jszh":null,"hpzl":null,"wfgxsj":null,"gsjdsbh":"5016002900228056","gsajmc":"何家祥机动车行驶超速50%以上案","gscflb":null,"gscfss":null,"gscfyj":null,"gsjsrxm":"何家祥","gshpzl":"小型汽车","gshphm":"渝CRU289","gscfjg":"罚款1000元","gsjf":null,"gscfbm":"重庆市江津区公安局交通巡逻警察支队","gscfrq":"2017年05月22日","gscfxzqh":null,"gsqymc":null,"gsfrxm":null,"gsshxydm":null,"lczt":null,"scsj":null,"gsrq":null,"gssj":null,"gsr":null,"gsbm":null,"zfsj":null,"gxsj":null,"csbj":null,"gsyw":"01"},{"id":"50000210000000051768","wfbh":null,"jdslb":null,"jdsbh":null,"gslx":"1","jszh":null,"hpzl":null,"wfgxsj":null,"gsjdsbh":"5035002900787252","gsajmc":"刘孝兵机动车行驶超速50%以上案","gscflb":null,"gscfss":null,"gscfyj":null,"gsjsrxm":"刘孝兵","gshpzl":"小型汽车","gshphm":"渝A235J3","gscfjg":"罚款1000元","gsjf":null,"gscfbm":"重庆市云阳县公安局交通巡逻警察大队","gscfrq":"2017年05月23日","gscfxzqh":null,"gsqymc":null,"gsfrxm":null,"gsshxydm":null,"lczt":null,"scsj":null,"gsrq":null,"gssj":null,"gsr":null,"gsbm":null,"zfsj":null,"gxsj":null,"csbj":null,"gsyw":"01"}],"first":false,"sort":null,"pageSize":20,"pageNo":566,"totalCount":15787,"last":false,"totalPages":790,"resultSize":20}},"code":200}