{"message":"操作成功！","data":{"list":{"content":[{"id":"50000210000000272089","wfbh":null,"jdslb":null,"jdsbh":null,"gslx":"1","jszh":null,"hpzl":null,"wfgxsj":null,"gsjdsbh":"5023002900123853","gsajmc":"王云辉机动车行驶超速50%以上案","gscflb":null,"gscfss":null,"gscfyj":null,"gsjsrxm":"王云辉","gshpzl":"小型汽车","gshphm":"渝AJX567","gscfjg":"罚款1000元","gsjf":null,"gscfbm":"重庆市潼南区公安局交通巡逻警察支队","gscfrq":"2017年09月26日","gscfxzqh":null,"gsqymc":null,"gsfrxm":null,"gsshxydm":null,"lczt":null,"scsj":null,"gsrq":null,"gssj":null,"gsr":null,"gsbm":null,"zfsj":null,"gxsj":null,"csbj":null,"gsyw":"01"},{"id":"50000210000000271468","wfbh":null,"jdslb":null,"jdsbh":null,"gslx":"1","jszh":null,"hpzl":null,"wfgxsj":null,"gsjdsbh":"5012002900410436","gsajmc":"王蓉醉酒后驾驶机动车案","gscflb":null,"gscfss":null,"gscfyj":null,"gsjsrxm":"王蓉","gshpzl":"小型汽车","gshphm":"渝BWB866","gscfjg":"吊销驾驶证","gsjf":null,"gscfbm":"重庆市公安局渝北区分局交通巡逻警察支队","gscfrq":"2017年09月26日","gscfxzqh":null,"gsqymc":null,"gsfrxm":null,"gsshxydm":null,"lczt":null,"scsj":null,"gsrq":null,"gssj":null,"gsr":null,"gsbm":null,"zfsj":null,"gxsj":null,"csbj":null,"gsyw":"01"},{"id":"50000210000000271828","wfbh":null,"jdslb":null,"jdsbh":null,"gslx":"1","jszh":null,"hpzl":null,"wfgxsj":null,"gsjdsbh":"5037002900368746","gsajmc":"丁梦淼机动车行驶超速50%以上案","gscflb":null,"gscfss":null,"gscfyj":null,"gsjsrxm":"丁梦淼","gshpzl":"小型汽车","gshphm":"渝F8R776","gscfjg":"罚款1000元","gsjf":null,"gscfbm":"重庆市巫山县公安局交通巡逻警察大队","gscfrq":"2017年09月26日","gscfxzqh":null,"gsqymc":null,"gsfrxm":null,"gsshxydm":null,"lczt":null,"scsj":null,"gsrq":null,"gssj":null,"gsr":null,"gsbm":null,"zfsj":null,"gxsj":null,"csbj":null,"gsyw":"01"},{"id":"50000210000000272688","wfbh":null,"jdslb":null,"jdsbh":null,"gslx":"1","jszh":null,"hpzl":null,"wfgxsj":null,"gsjdsbh":"5004002900168656","gsajmc":"周欣机动车行驶超速50%以上案","gscflb":null,"gscfss":null,"gscfyj":null,"gsjsrxm":"周欣","gshpzl":"小型汽车","gshphm":"渝A86K26","gscfjg":"罚款1000元","gsjf":null,"gscfbm":"重庆市公安局大渡口区分局交通巡逻警察支队","gscfrq":"2017年09月26日","gscfxzqh":null,"gsqymc":null,"gsfrxm":null,"gsshxydm":null,"lczt":null,"scsj":null,"gsrq":null,"gssj":null,"gsr":null,"gsbm":null,"zfsj":null,"gxsj":null,"csbj":null,"gsyw":"01"},{"id":"50000210000000271648","wfbh":null,"jdslb":null,"jdsbh":null,"gslx":"1","jszh":null,"hpzl":null,"wfgxsj":null,"gsjdsbh":"502700290018596X","gsajmc":"连福德醉酒后驾驶机动车案","gscflb":null,"gscfss":null,"gscfyj":null,"gsjsrxm":"连福德","gshpzl":"普通摩托车","gshphm":"渝CDA786","gscfjg":"吊销驾驶证","gsjf":null,"gscfbm":"重庆市璧山区公安局交通巡逻警察支队","gscfrq":"2017年09月26日","gscfxzqh":null,"gsqymc":null,"gsfrxm":null,"gsshxydm":null,"lczt":null,"scsj":null,"gsrq":null,"gssj":null,"gsr":null,"gsbm":null,"zfsj":null,"gxsj":null,"csbj":null,"gsyw":"01"},{"id":"50000210000000271788","wfbh":null,"jdslb":null,"jdsbh":null,"gslx":"1","jszh":null,"hpzl":null,"wfgxsj":null,"gsjdsbh":"503400290061177X","gsajmc":"杨周机动车行驶超速50%以上案","gscflb":null,"gscfss":null,"gscfyj":null,"gsjsrxm":"杨周","gshpzl":"小型汽车","gshphm":"粤B11V70","gscfjg":"罚款1000元","gsjf":null,"gscfbm":"重庆市开州区公安局交通巡逻警察支队","gscfrq":"2017年09月26日","gscfxzqh":null,"gsqymc":null,"gsfrxm":null,"gsshxydm":null,"lczt":null,"scsj":null,"gsrq":null,"gssj":null,"gsr":null,"gsbm":null,"zfsj":null,"gxsj":null,"csbj":null,"gsyw":"01"},{"id":"50000210000000272768","wfbh":null,"jdslb":null,"jdsbh":null,"gslx":"1","jszh":null,"hpzl":null,"wfgxsj":null,"gsjdsbh":"5003002900534670","gsajmc":"于倩机动车行驶超速50%以上案","gscflb":null,"gscfss":null,"gscfyj":null,"gsjsrxm":"于倩","gshpzl":"小型汽车","gshphm":"渝BVV037","gscfjg":"罚款1000元","gsjf":null,"gscfbm":"重庆市公安局渝中区分局交通巡逻警察支队","gscfrq":"2017年09月26日","gscfxzqh":null,"gsqymc":null,"gsfrxm":null,"gsshxydm":null,"lczt":null,"scsj":null,"gsrq":null,"gssj":null,"gsr":null,"gsbm":null,"zfsj":null,"gxsj":null,"csbj":null,"gsyw":"01"},{"id":"50000210000000272029","wfbh":null,"jdslb":null,"jdsbh":null,"gslx":"1","jszh":null,"hpzl":null,"wfgxsj":null,"gsjdsbh":"5033002900380472","gsajmc":"杨小龙机动车行驶超速50%以上案","gscflb":null,"gscfss":null,"gscfyj":null,"gsjsrxm":"杨小龙","gshpzl":"小型汽车","gshphm":"渝FAH758","gscfjg":"罚款1000元","gsjf":null,"gscfbm":"重庆市忠县公安局交通巡逻警察大队","gscfrq":"2017年09月26日","gscfxzqh":null,"gsqymc":null,"gsfrxm":null,"gsshxydm":null,"lczt":null,"scsj":null,"gsrq":null,"gssj":null,"gsr":null,"gsbm":null,"zfsj":null,"gxsj":null,"csbj":null,"gsyw":"01"},{"id":"50000210000000271949","wfbh":null,"jdslb":null,"jdsbh":null,"gslx":"1","jszh":null,"hpzl":null,"wfgxsj":null,"gsjdsbh":"5036002900840470","gsajmc":"晏涛机动车行驶超速50%以上案","gscflb":null,"gscfss":null,"gscfyj":null,"gsjsrxm":"晏涛","gshpzl":"小型汽车","gshphm":"粤X498B7","gscfjg":"罚款1000元","gsjf":null,"gscfbm":"重庆市奉节县公安局交通巡逻警察大队","gscfrq":"2017年09月26日","gscfxzqh":null,"gsqymc":null,"gsfrxm":null,"gsshxydm":null,"lczt":null,"scsj":null,"gsrq":null,"gssj":null,"gsr":null,"gsbm":null,"zfsj":null,"gxsj":null,"csbj":null,"gsyw":"01"},{"id":"50000210000000272348","wfbh":null,"jdslb":null,"jdsbh":null,"gslx":"1","jszh":null,"hpzl":null,"wfgxsj":null,"gsjdsbh":"5001002901125700","gsajmc":"向帮明公路客运车辆超员载客案","gscflb":null,"gscfss":null,"gscfyj":null,"gsjsrxm":"向帮明","gshpzl":"小型汽车","gshphm":"渝F7X907","gscfjg":"罚款1500元","gsjf":null,"gscfbm":"重庆市万州区公安局交通巡逻警察支队","gscfrq":"2017年09月26日","gscfxzqh":null,"gsqymc":null,"gsfrxm":null,"gsshxydm":null,"lczt":null,"scsj":null,"gsrq":null,"gssj":null,"gsr":null,"gsbm":null,"zfsj":null,"gxsj":null,"csbj":null,"gsyw":"01"},{"id":"50000210000000272708","wfbh":null,"jdslb":null,"jdsbh":null,"gslx":"1","jszh":null,"hpzl":null,"wfgxsj":null,"gsjdsbh":"5029002900035072","gsajmc":"李长军醉酒后驾驶机动车案","gscflb":null,"gscfss":null,"gscfyj":null,"gsjsrxm":"李长军","gshpzl":"小型汽车","gshphm":"渝F175L2","gscfjg":"吊销驾驶证","gsjf":null,"gscfbm":"重庆市城口县公安局交通巡逻警察大队","gscfrq":"2017年09月26日","gscfxzqh":null,"gsqymc":null,"gsfrxm":null,"gsshxydm":null,"lczt":null,"scsj":null,"gsrq":null,"gssj":null,"gsr":null,"gsbm":null,"zfsj":null,"gxsj":null,"csbj":null,"gsyw":"01"},{"id":"50000210000000272208","wfbh":null,"jdslb":null,"jdsbh":null,"gslx":"1","jszh":null,"hpzl":null,"wfgxsj":null,"gsjdsbh":"5036002900840734","gsajmc":"马伟淋机动车行驶超速50%以上案","gscflb":null,"gscfss":null,"gscfyj":null,"gsjsrxm":"马伟淋","gshpzl":"小型汽车","gshphm":"渝ASE515","gscfjg":"罚款1000元","gsjf":null,"gscfbm":"重庆市奉节县公安局交通巡逻警察大队","gscfrq":"2017年09月26日","gscfxzqh":null,"gsqymc":null,"gsfrxm":null,"gsshxydm":null,"lczt":null,"scsj":null,"gsrq":null,"gssj":null,"gsr":null,"gsbm":null,"zfsj":null,"gxsj":null,"csbj":null,"gsyw":"01"},{"id":"50000210000000271208","wfbh":null,"jdslb":null,"jdsbh":null,"gslx":"1","jszh":null,"hpzl":null,"wfgxsj":null,"gsjdsbh":"5034002900611681","gsajmc":"杜红平机动车行驶超速50%以上案","gscflb":null,"gscfss":null,"gscfyj":null,"gsjsrxm":"杜红平","gshpzl":"小型汽车","gshphm":"渝FKF886","gscfjg":"罚款1000元","gsjf":null,"gscfbm":"重庆市开州区公安局交通巡逻警察支队","gscfrq":"2017年09月25日","gscfxzqh":null,"gsqymc":null,"gsfrxm":null,"gsshxydm":null,"lczt":null,"scsj":null,"gsrq":null,"gssj":null,"gsr":null,"gsbm":null,"zfsj":null,"gxsj":null,"csbj":null,"gsyw":"01"},{"id":"50000210000000271408","wfbh":null,"jdslb":null,"jdsbh":null,"gslx":"1","jszh":null,"hpzl":null,"wfgxsj":null,"gsjdsbh":"503700290036867X","gsajmc":"宋美蓉机动车行驶超速50%以上案","gscflb":null,"gscfss":null,"gscfyj":null,"gsjsrxm":"宋美蓉","gshpzl":"小型汽车","gshphm":"渝F23Z62","gscfjg":"罚款1000元","gsjf":null,"gscfbm":"重庆市巫山县公安局交通巡逻警察大队","gscfrq":"2017年09月26日","gscfxzqh":null,"gsqymc":null,"gsfrxm":null,"gsshxydm":null,"lczt":null,"scsj":null,"gsrq":null,"gssj":null,"gsr":null,"gsbm":null,"zfsj":null,"gxsj":null,"csbj":null,"gsyw":"01"},{"id":"50000210000000271908","wfbh":null,"jdslb":null,"jdsbh":null,"gslx":"1","jszh":null,"hpzl":null,"wfgxsj":null,"gsjdsbh":"5035002900827875","gsajmc":"刘朋机动车行驶超速50%以上案","gscflb":null,"gscfss":null,"gscfyj":null,"gsjsrxm":"刘朋","gshpzl":"小型汽车","gshphm":"渝D9S038","gscfjg":"罚款1000元","gsjf":null,"gscfbm":"重庆市云阳县公安局交通巡逻警察大队","gscfrq":"2017年09月26日","gscfxzqh":null,"gsqymc":null,"gsfrxm":null,"gsshxydm":null,"lczt":null,"scsj":null,"gsrq":null,"gssj":null,"gsr":null,"gsbm":null,"zfsj":null,"gxsj":null,"csbj":null,"gsyw":"01"},{"id":"50000210000000272774","wfbh":null,"jdslb":null,"jdsbh":null,"gslx":"1","jszh":null,"hpzl":null,"wfgxsj":null,"gsjdsbh":"5035002900828018","gsajmc":"向格机动车行驶超速50%以上案","gscflb":null,"gscfss":null,"gscfyj":null,"gsjsrxm":"向格","gshpzl":"小型汽车","gshphm":"渝F23Q11","gscfjg":"罚款1000元","gsjf":null,"gscfbm":"重庆市云阳县公安局交通巡逻警察大队","gscfrq":"2017年09月26日","gscfxzqh":null,"gsqymc":null,"gsfrxm":null,"gsshxydm":null,"lczt":null,"scsj":null,"gsrq":null,"gssj":null,"gsr":null,"gsbm":null,"zfsj":null,"gxsj":null,"csbj":null,"gsyw":"01"},{"id":"50000210000000271388","wfbh":null,"jdslb":null,"jdsbh":null,"gslx":"1","jszh":null,"hpzl":null,"wfgxsj":null,"gsjdsbh":"501600290024525X","gsajmc":"雷冲违反道路交通安全法律、法规的规定，发生重大事故，构成犯罪的案","gscflb":null,"gscfss":null,"gscfyj":null,"gsjsrxm":"雷冲","gshpzl":"小型汽车","gshphm":"渝CJY562","gscfjg":"吊销驾驶证","gsjf":null,"gscfbm":"重庆市江津区公安局交通巡逻警察支队","gscfrq":"2017年09月26日","gscfxzqh":null,"gsqymc":null,"gsfrxm":null,"gsshxydm":null,"lczt":null,"scsj":null,"gsrq":null,"gssj":null,"gsr":null,"gsbm":null,"zfsj":null,"gxsj":null,"csbj":null,"gsyw":"01"},{"id":"50000210000000271928","wfbh":null,"jdslb":null,"jdsbh":null,"gslx":"1","jszh":null,"hpzl":null,"wfgxsj":null,"gsjdsbh":"5036002900840426","gsajmc":"杨芳机动车行驶超速50%以上案","gscflb":null,"gscfss":null,"gscfyj":null,"gsjsrxm":"杨芳","gshpzl":"小型汽车","gshphm":"渝F572F2","gscfjg":"罚款1000元","gsjf":null,"gscfbm":"重庆市奉节县公安局交通巡逻警察大队","gscfrq":"2017年09月26日","gscfxzqh":null,"gsqymc":null,"gsfrxm":null,"gsshxydm":null,"lczt":null,"scsj":null,"gsrq":null,"gssj":null,"gsr":null,"gsbm":null,"zfsj":null,"gxsj":null,"csbj":null,"gsyw":"01"},{"id":"50000210000000272248","wfbh":null,"jdslb":null,"jdsbh":null,"gslx":"1","jszh":null,"hpzl":null,"wfgxsj":null,"gsjdsbh":"5014002900204384","gsajmc":"汪密山饮酒后驾驶机动车案","gscflb":null,"gscfss":null,"gscfyj":null,"gsjsrxm":"汪密山","gshpzl":"小型汽车","gshphm":"渝B533L5","gscfjg":"行政拘留天，并处吊销驾驶证，并处罚款1500元","gsjf":null,"gscfbm":"重庆市黔江区公安局交通巡逻警察支队","gscfrq":"2017年09月26日","gscfxzqh":null,"gsqymc":null,"gsfrxm":null,"gsshxydm":null,"lczt":null,"scsj":null,"gsrq":null,"gssj":null,"gsr":null,"gsbm":null,"zfsj":null,"gxsj":null,"csbj":null,"gsyw":"01"},{"id":"50000210000000273088","wfbh":null,"jdslb":null,"jdsbh":null,"gslx":"1","jszh":null,"hpzl":null,"wfgxsj":null,"gsjdsbh":"5034002900612176","gsajmc":"李智醉酒后驾驶机动车案","gscflb":null,"gscfss":null,"gscfyj":null,"gsjsrxm":"李智","gshpzl":"小型汽车","gshphm":"渝F710M7","gscfjg":"吊销驾驶证","gsjf":null,"gscfbm":"重庆市开州区公安局交通巡逻警察支队","gscfrq":"2017年09月26日","gscfxzqh":null,"gsqymc":null,"gsfrxm":null,"gsshxydm":null,"lczt":null,"scsj":null,"gsrq":null,"gssj":null,"gsr":null,"gsbm":null,"zfsj":null,"gxsj":null,"csbj":null,"gsyw":"01"}],"first":false,"sort":null,"pageSize":20,"pageNo":31,"totalCount":2378,"last":false,"totalPages":119,"resultSize":20}},"code":200}