{"message":"操作成功！","data":{"list":{"content":[{"id":"50000210000000002926","wfbh":null,"jdslb":null,"jdsbh":null,"gslx":"1","jszh":null,"hpzl":null,"wfgxsj":null,"gsjdsbh":"5001002900881720","gsajmc":"蒋波机动车行驶超速50%以上案","gscflb":null,"gscfss":null,"gscfyj":null,"gsjsrxm":"蒋波","gshpzl":"小型汽车","gshphm":"渝F026A2","gscfjg":"罚款1000元","gsjf":null,"gscfbm":"重庆市万州区公安局交通巡逻警察支队","gscfrq":"2017年03月14日","gscfxzqh":null,"gsqymc":null,"gsfrxm":null,"gsshxydm":null,"lczt":null,"scsj":null,"gsrq":null,"gssj":null,"gsr":null,"gsbm":null,"zfsj":null,"gxsj":null,"csbj":null,"gsyw":"01"},{"id":"50000210000000002957","wfbh":null,"jdslb":null,"jdsbh":null,"gslx":"1","jszh":null,"hpzl":null,"wfgxsj":null,"gsjdsbh":"5035002900761105","gsajmc":"李渝兰机动车行驶超速50%以上案","gscflb":null,"gscfss":null,"gscfyj":null,"gsjsrxm":"李渝兰","gshpzl":"小型汽车","gshphm":"渝F131F6","gscfjg":"罚款1000元","gsjf":null,"gscfbm":"重庆市云阳县公安局交通巡逻警察大队","gscfrq":"2017年03月14日","gscfxzqh":null,"gsqymc":null,"gsfrxm":null,"gsshxydm":null,"lczt":null,"scsj":null,"gsrq":null,"gssj":null,"gsr":null,"gsbm":null,"zfsj":null,"gxsj":null,"csbj":null,"gsyw":"01"},{"id":"50000210000000002945","wfbh":null,"jdslb":null,"jdsbh":null,"gslx":"1","jszh":null,"hpzl":null,"wfgxsj":null,"gsjdsbh":"5012002900359275","gsajmc":"张鸿堪机动车行驶超速50%以上案","gscflb":null,"gscfss":null,"gscfyj":null,"gsjsrxm":"张鸿堪","gshpzl":"小型汽车","gshphm":"渝A071Y2","gscfjg":"罚款1000元","gsjf":null,"gscfbm":"重庆市公安局渝北区分局交通巡逻警察支队","gscfrq":"2017年03月14日","gscfxzqh":null,"gsqymc":null,"gsfrxm":null,"gsshxydm":null,"lczt":null,"scsj":null,"gsrq":null,"gssj":null,"gsr":null,"gsbm":null,"zfsj":null,"gxsj":null,"csbj":null,"gsyw":"01"},{"id":"50000210000000002956","wfbh":null,"jdslb":null,"jdsbh":null,"gslx":"1","jszh":null,"hpzl":null,"wfgxsj":null,"gsjdsbh":"5001002900882050","gsajmc":"何知宏机动车行驶超速50%以上案","gscflb":null,"gscfss":null,"gscfyj":null,"gsjsrxm":"何知宏","gshpzl":"小型汽车","gshphm":"渝FDY906","gscfjg":"罚款1000元","gsjf":null,"gscfbm":"重庆市万州区公安局交通巡逻警察支队","gscfrq":"2017年03月14日","gscfxzqh":null,"gsqymc":null,"gsfrxm":null,"gsshxydm":null,"lczt":null,"scsj":null,"gsrq":null,"gssj":null,"gsr":null,"gsbm":null,"zfsj":null,"gxsj":null,"csbj":null,"gsyw":"01"},{"id":"50000210000000002952","wfbh":null,"jdslb":null,"jdsbh":null,"gslx":"1","jszh":null,"hpzl":null,"wfgxsj":null,"gsjdsbh":"5015001905194973","gsajmc":"李元兵机动车驾驶人违反道路通行规定案","gscflb":null,"gscfss":null,"gscfyj":null,"gsjsrxm":"李元兵","gshpzl":"大型汽车","gshphm":"渝AG7827","gscfjg":"罚款200元","gsjf":null,"gscfbm":"重庆市长寿区公安局交通巡逻警察支队","gscfrq":"2017年03月14日","gscfxzqh":null,"gsqymc":null,"gsfrxm":null,"gsshxydm":null,"lczt":null,"scsj":null,"gsrq":null,"gssj":null,"gsr":null,"gsbm":null,"zfsj":null,"gxsj":null,"csbj":null,"gsyw":"01"},{"id":"50000210000000002942","wfbh":null,"jdslb":null,"jdsbh":null,"gslx":"1","jszh":null,"hpzl":null,"wfgxsj":null,"gsjdsbh":"5003002900493145","gsajmc":"吕应强饮酒后驾驶机动车案","gscflb":null,"gscfss":null,"gscfyj":null,"gsjsrxm":"吕应强","gshpzl":"小型汽车","gshphm":"渝D1G991","gscfjg":"行政拘留5天，并处吊销驾驶证，并处罚款2000元","gsjf":null,"gscfbm":"重庆市公安局渝中区分局交通巡逻警察支队","gscfrq":"2017年03月14日","gscfxzqh":null,"gsqymc":null,"gsfrxm":null,"gsshxydm":null,"lczt":null,"scsj":null,"gsrq":null,"gssj":null,"gsr":null,"gsbm":null,"zfsj":null,"gxsj":null,"csbj":null,"gsyw":"01"},{"id":"50000210000000002948","wfbh":null,"jdslb":null,"jdsbh":null,"gslx":"1","jszh":null,"hpzl":null,"wfgxsj":null,"gsjdsbh":"5001002900882842","gsajmc":"向欣机动车行驶超速50%以上案","gscflb":null,"gscfss":null,"gscfyj":null,"gsjsrxm":"向欣","gshpzl":"小型汽车","gshphm":"渝BJB715","gscfjg":"罚款1000元","gsjf":null,"gscfbm":"重庆市万州区公安局交通巡逻警察支队","gscfrq":"2017年03月14日","gscfxzqh":null,"gsqymc":null,"gsfrxm":null,"gsshxydm":null,"lczt":null,"scsj":null,"gsrq":null,"gssj":null,"gsr":null,"gsbm":null,"zfsj":null,"gxsj":null,"csbj":null,"gsyw":"01"},{"id":"50000210000000002944","wfbh":null,"jdslb":null,"jdsbh":null,"gslx":"1","jszh":null,"hpzl":null,"wfgxsj":null,"gsjdsbh":"5012002900359264","gsajmc":"黄桂机动车行驶超速50%以上案","gscflb":null,"gscfss":null,"gscfyj":null,"gsjsrxm":"黄桂","gshpzl":"小型汽车","gshphm":"渝A071Y2","gscfjg":"罚款1000元","gsjf":null,"gscfbm":"重庆市公安局渝北区分局交通巡逻警察支队","gscfrq":"2017年03月14日","gscfxzqh":null,"gsqymc":null,"gsfrxm":null,"gsshxydm":null,"lczt":null,"scsj":null,"gsrq":null,"gssj":null,"gsr":null,"gsbm":null,"zfsj":null,"gxsj":null,"csbj":null,"gsyw":"01"},{"id":"50000210000000002947","wfbh":null,"jdslb":null,"jdsbh":null,"gslx":"1","jszh":null,"hpzl":null,"wfgxsj":null,"gsjdsbh":"5006002900254610","gsajmc":"袁学伟机动车行驶超速50%以上案","gscflb":null,"gscfss":null,"gscfyj":null,"gsjsrxm":"袁学伟","gshpzl":"小型汽车","gshphm":"渝G3W656","gscfjg":"罚款1000元","gsjf":null,"gscfbm":"重庆市公安局沙坪坝区分局交通巡逻警察支队","gscfrq":"2017年03月14日","gscfxzqh":null,"gsqymc":null,"gsfrxm":null,"gsshxydm":null,"lczt":null,"scsj":null,"gsrq":null,"gssj":null,"gsr":null,"gsbm":null,"zfsj":null,"gxsj":null,"csbj":null,"gsyw":"01"},{"id":"50000210000000002955","wfbh":null,"jdslb":null,"jdsbh":null,"gslx":"1","jszh":null,"hpzl":null,"wfgxsj":null,"gsjdsbh":"5007002900492353","gsajmc":"杨胜金使用伪造、变造的机动车号牌案","gscflb":null,"gscfss":null,"gscfyj":null,"gsjsrxm":"杨胜金","gshpzl":"","gshphm":"无","gscfjg":"行政拘留天，并处罚款5000元","gsjf":null,"gscfbm":"重庆市公安局九龙坡区分局交通巡逻警察支队","gscfrq":"2017年03月14日","gscfxzqh":null,"gsqymc":null,"gsfrxm":null,"gsshxydm":null,"lczt":null,"scsj":null,"gsrq":null,"gssj":null,"gsr":null,"gsbm":null,"zfsj":null,"gxsj":null,"csbj":null,"gsyw":"01"},{"id":"50000210000000002946","wfbh":null,"jdslb":null,"jdsbh":null,"gslx":"1","jszh":null,"hpzl":null,"wfgxsj":null,"gsjdsbh":"5030002900419280","gsajmc":"王梦媛机动车行驶超速50%以上案","gscflb":null,"gscfss":null,"gscfyj":null,"gsjsrxm":"王梦媛","gshpzl":"小型汽车","gshphm":"粤Y19Q46","gscfjg":"罚款1000元","gsjf":null,"gscfbm":"重庆市丰都县公安局交通巡逻警察大队","gscfrq":"2017年03月14日","gscfxzqh":null,"gsqymc":null,"gsfrxm":null,"gsshxydm":null,"lczt":null,"scsj":null,"gsrq":null,"gssj":null,"gsr":null,"gsbm":null,"zfsj":null,"gxsj":null,"csbj":null,"gsyw":"01"},{"id":"50000210000000002950","wfbh":null,"jdslb":null,"jdsbh":null,"gslx":"1","jszh":null,"hpzl":null,"wfgxsj":null,"gsjdsbh":"5004002900142520","gsajmc":"黄桃胜机动车行驶超速50%以上案","gscflb":null,"gscfss":null,"gscfyj":null,"gsjsrxm":"黄桃胜","gshpzl":"小型汽车","gshphm":"粤B1SN43","gscfjg":"罚款1000元","gsjf":null,"gscfbm":"重庆市公安局大渡口区分局交通巡逻警察支队","gscfrq":"2017年03月14日","gscfxzqh":null,"gsqymc":null,"gsfrxm":null,"gsshxydm":null,"lczt":null,"scsj":null,"gsrq":null,"gssj":null,"gsr":null,"gsbm":null,"zfsj":null,"gxsj":null,"csbj":null,"gsyw":"01"},{"id":"50000210000000002949","wfbh":null,"jdslb":null,"jdsbh":null,"gslx":"1","jszh":null,"hpzl":null,"wfgxsj":null,"gsjdsbh":"5026002900226021","gsajmc":"于清机动车行驶超速50%以上案","gscflb":null,"gscfss":null,"gscfyj":null,"gsjsrxm":"于清","gshpzl":"小型汽车","gshphm":"渝BEA735","gscfjg":"罚款1000元","gsjf":null,"gscfbm":"重庆市荣昌区公安局交通巡逻警察支队","gscfrq":"2017年03月14日","gscfxzqh":null,"gsqymc":null,"gsfrxm":null,"gsshxydm":null,"lczt":null,"scsj":null,"gsrq":null,"gssj":null,"gsr":null,"gsbm":null,"zfsj":null,"gxsj":null,"csbj":null,"gsyw":"01"},{"id":"50000210000000002959","wfbh":null,"jdslb":null,"jdsbh":null,"gslx":"1","jszh":null,"hpzl":null,"wfgxsj":null,"gsjdsbh":"5000002900046314","gsajmc":"王嘉机动车行驶超速50%以上案","gscflb":null,"gscfss":null,"gscfyj":null,"gsjsrxm":"王嘉","gshpzl":"小型汽车","gshphm":"渝A93Q39","gscfjg":"罚款1000元","gsjf":null,"gscfbm":"重庆市公安局交通管理局","gscfrq":"2017年03月14日","gscfxzqh":null,"gsqymc":null,"gsfrxm":null,"gsshxydm":null,"lczt":null,"scsj":null,"gsrq":null,"gssj":null,"gsr":null,"gsbm":null,"zfsj":null,"gxsj":null,"csbj":null,"gsyw":"01"},{"id":"50000210000000002953","wfbh":null,"jdslb":null,"jdsbh":null,"gslx":"1","jszh":null,"hpzl":null,"wfgxsj":null,"gsjdsbh":"504000290011798X","gsajmc":"向劲松机动车行驶超速50%以上案","gscflb":null,"gscfss":null,"gscfyj":null,"gsjsrxm":"向劲松","gshpzl":"小型汽车","gshphm":"渝H73695","gscfjg":"罚款1000元","gsjf":null,"gscfbm":"重庆市石柱土家族自治县公安局交通巡逻警察大队","gscfrq":"2017年03月14日","gscfxzqh":null,"gsqymc":null,"gsfrxm":null,"gsshxydm":null,"lczt":null,"scsj":null,"gsrq":null,"gssj":null,"gsr":null,"gsbm":null,"zfsj":null,"gxsj":null,"csbj":null,"gsyw":"01"},{"id":"50000210000000002964","wfbh":null,"jdslb":null,"jdsbh":null,"gslx":"1","jszh":null,"hpzl":null,"wfgxsj":null,"gsjdsbh":"5037002900307476","gsajmc":"张科树无有效机动车驾驶证驾驶机动车案","gscflb":null,"gscfss":null,"gscfyj":null,"gsjsrxm":"张科树","gshpzl":"小型汽车","gshphm":"渝F03A10","gscfjg":"行政拘留天，并处罚款2000元","gsjf":null,"gscfbm":"重庆市巫山县公安局交通巡逻警察大队","gscfrq":"2017年03月14日","gscfxzqh":null,"gsqymc":null,"gsfrxm":null,"gsshxydm":null,"lczt":null,"scsj":null,"gsrq":null,"gssj":null,"gsr":null,"gsbm":null,"zfsj":null,"gxsj":null,"csbj":null,"gsyw":"01"},{"id":"50000210000000002961","wfbh":null,"jdslb":null,"jdsbh":null,"gslx":"1","jszh":null,"hpzl":null,"wfgxsj":null,"gsjdsbh":"5037002900307729","gsajmc":"汪昌洪醉酒后驾驶机动车案","gscflb":null,"gscfss":null,"gscfyj":null,"gsjsrxm":"汪昌洪","gshpzl":"普通摩托车","gshphm":"渝FKV558","gscfjg":"吊销驾驶证","gsjf":null,"gscfbm":"重庆市巫山县公安局交通巡逻警察大队","gscfrq":"2017年03月14日","gscfxzqh":null,"gsqymc":null,"gsfrxm":null,"gsshxydm":null,"lczt":null,"scsj":null,"gsrq":null,"gssj":null,"gsr":null,"gsbm":null,"zfsj":null,"gxsj":null,"csbj":null,"gsyw":"01"},{"id":"50000210000000002965","wfbh":null,"jdslb":null,"jdsbh":null,"gslx":"1","jszh":null,"hpzl":null,"wfgxsj":null,"gsjdsbh":"5016002900217771","gsajmc":"杨兵饮酒后驾驶机动车案","gscflb":null,"gscfss":null,"gscfyj":null,"gsjsrxm":"杨兵","gshpzl":"小型汽车","gshphm":"渝CNR709","gscfjg":"行政拘留10天，并处吊销驾驶证，并处罚款1500元","gsjf":null,"gscfbm":"重庆市江津区公安局交通巡逻警察支队","gscfrq":"2017年03月14日","gscfxzqh":null,"gsqymc":null,"gsfrxm":null,"gsshxydm":null,"lczt":null,"scsj":null,"gsrq":null,"gssj":null,"gsr":null,"gsbm":null,"zfsj":null,"gxsj":null,"csbj":null,"gsyw":"01"},{"id":"50000210000000002971","wfbh":null,"jdslb":null,"jdsbh":null,"gslx":"1","jszh":null,"hpzl":null,"wfgxsj":null,"gsjdsbh":"5031002900270527","gsajmc":"卢盛良无有效机动车驾驶证驾驶机动车案","gscflb":null,"gscfss":null,"gscfyj":null,"gsjsrxm":"卢盛良","gshpzl":"","gshphm":"无","gscfjg":"行政拘留天，并处罚款200元","gsjf":null,"gscfbm":"重庆市垫江县公安局交通巡逻警察大队","gscfrq":"2017年03月14日","gscfxzqh":null,"gsqymc":null,"gsfrxm":null,"gsshxydm":null,"lczt":null,"scsj":null,"gsrq":null,"gssj":null,"gsr":null,"gsbm":null,"zfsj":null,"gxsj":null,"csbj":null,"gsyw":"01"},{"id":"50000210000000002963","wfbh":null,"jdslb":null,"jdsbh":null,"gslx":"1","jszh":null,"hpzl":null,"wfgxsj":null,"gsjdsbh":"5035002900760951","gsajmc":"朱应清无有效机动车驾驶证驾驶机动车案","gscflb":null,"gscfss":null,"gscfyj":null,"gsjsrxm":"朱应清","gshpzl":"","gshphm":"无","gscfjg":"行政拘留天，并处罚款200元","gsjf":null,"gscfbm":"重庆市云阳县公安局交通巡逻警察大队","gscfrq":"2017年03月14日","gscfxzqh":null,"gsqymc":null,"gsfrxm":null,"gsshxydm":null,"lczt":null,"scsj":null,"gsrq":null,"gssj":null,"gsr":null,"gsbm":null,"zfsj":null,"gxsj":null,"csbj":null,"gsyw":"01"}],"first":false,"sort":null,"pageSize":20,"pageNo":724,"totalCount":15787,"last":false,"totalPages":790,"resultSize":20}},"code":200}