{"message":"操作成功！","data":{"list":{"content":[{"id":"50000210000000275888","wfbh":null,"jdslb":null,"jdsbh":null,"gslx":"1","jszh":null,"hpzl":null,"wfgxsj":null,"gsjdsbh":"5005002900269878","gsajmc":"罗伟醉酒后驾驶机动车案","gscflb":null,"gscfss":null,"gscfyj":null,"gsjsrxm":"罗伟","gshpzl":"小型汽车","gshphm":"渝D6W806","gscfjg":"吊销驾驶证","gsjf":null,"gscfbm":"重庆市公安局江北区分局交通巡逻警察支队","gscfrq":"2017年09月28日","gscfxzqh":null,"gsqymc":null,"gsfrxm":null,"gsshxydm":null,"lczt":null,"scsj":null,"gsrq":null,"gssj":null,"gsr":null,"gsbm":null,"zfsj":null,"gxsj":null,"csbj":null,"gsyw":"01"},{"id":"50000210000000276468","wfbh":null,"jdslb":null,"jdsbh":null,"gslx":"1","jszh":null,"hpzl":null,"wfgxsj":null,"gsjdsbh":"5006002900277886","gsajmc":"王新全机动车行驶超速50%以上案","gscflb":null,"gscfss":null,"gscfyj":null,"gsjsrxm":"王新全","gshpzl":"小型汽车","gshphm":"渝BLY138","gscfjg":"罚款1000元","gsjf":null,"gscfbm":"重庆市公安局沙坪坝区分局交通巡逻警察支队","gscfrq":"2017年09月28日","gscfxzqh":null,"gsqymc":null,"gsfrxm":null,"gsshxydm":null,"lczt":null,"scsj":null,"gsrq":null,"gssj":null,"gsr":null,"gsbm":null,"zfsj":null,"gxsj":null,"csbj":null,"gsyw":"01"},{"id":"50000210000000276488","wfbh":null,"jdslb":null,"jdsbh":null,"gslx":"1","jszh":null,"hpzl":null,"wfgxsj":null,"gsjdsbh":"5016002900245788","gsajmc":"宋德洪醉酒后驾驶机动车案","gscflb":null,"gscfss":null,"gscfyj":null,"gsjsrxm":"宋德洪","gshpzl":"普通摩托车","gshphm":"渝BN3577","gscfjg":"吊销驾驶证","gsjf":null,"gscfbm":"重庆市江津区公安局交通巡逻警察支队","gscfrq":"2017年09月28日","gscfxzqh":null,"gsqymc":null,"gsfrxm":null,"gsshxydm":null,"lczt":null,"scsj":null,"gsrq":null,"gssj":null,"gsr":null,"gsbm":null,"zfsj":null,"gxsj":null,"csbj":null,"gsyw":"01"},{"id":"50000210000000275750","wfbh":null,"jdslb":null,"jdsbh":null,"gslx":"1","jszh":null,"hpzl":null,"wfgxsj":null,"gsjdsbh":"5004002900169173","gsajmc":"郭彦茹机动车行驶超速50%以上案","gscflb":null,"gscfss":null,"gscfyj":null,"gsjsrxm":"郭彦茹","gshpzl":"小型汽车","gshphm":"渝F38Z62","gscfjg":"罚款1000元","gsjf":null,"gscfbm":"重庆市公安局大渡口区分局交通巡逻警察支队","gscfrq":"2017年09月28日","gscfxzqh":null,"gsqymc":null,"gsfrxm":null,"gsshxydm":null,"lczt":null,"scsj":null,"gsrq":null,"gssj":null,"gsr":null,"gsbm":null,"zfsj":null,"gxsj":null,"csbj":null,"gsyw":"01"},{"id":"50000210000000276109","wfbh":null,"jdslb":null,"jdsbh":null,"gslx":"1","jszh":null,"hpzl":null,"wfgxsj":null,"gsjdsbh":"5003002900535165","gsajmc":"徐丹机动车行驶超速50%以上案","gscflb":null,"gscfss":null,"gscfyj":null,"gsjsrxm":"徐丹","gshpzl":"小型汽车","gshphm":"渝ALA035","gscfjg":"罚款1000元","gsjf":null,"gscfbm":"重庆市公安局渝中区分局交通巡逻警察支队","gscfrq":"2017年09月28日","gscfxzqh":null,"gsqymc":null,"gsfrxm":null,"gsshxydm":null,"lczt":null,"scsj":null,"gsrq":null,"gssj":null,"gsr":null,"gsbm":null,"zfsj":null,"gxsj":null,"csbj":null,"gsyw":"01"},{"id":"50000210000000276368","wfbh":null,"jdslb":null,"jdsbh":null,"gslx":"1","jszh":null,"hpzl":null,"wfgxsj":null,"gsjdsbh":"5002002900409644","gsajmc":"魏小冈醉酒后驾驶机动车案","gscflb":null,"gscfss":null,"gscfyj":null,"gsjsrxm":"魏小冈","gshpzl":"普通摩托车","gshphm":"渝D24292","gscfjg":"吊销驾驶证","gsjf":null,"gscfbm":"重庆市涪陵区公安局交通巡逻警察支队","gscfrq":"2017年09月28日","gscfxzqh":null,"gsqymc":null,"gsfrxm":null,"gsshxydm":null,"lczt":null,"scsj":null,"gsrq":null,"gssj":null,"gsr":null,"gsbm":null,"zfsj":null,"gxsj":null,"csbj":null,"gsyw":"01"},{"id":"50000210000000276328","wfbh":null,"jdslb":null,"jdsbh":null,"gslx":"1","jszh":null,"hpzl":null,"wfgxsj":null,"gsjdsbh":"503400290061309X","gsajmc":"刘体亚机动车行驶超速50%以上案","gscflb":null,"gscfss":null,"gscfyj":null,"gsjsrxm":"刘体亚","gshpzl":"小型汽车","gshphm":"渝F26Q16","gscfjg":"罚款1000元","gsjf":null,"gscfbm":"重庆市开州区公安局交通巡逻警察支队","gscfrq":"2017年09月28日","gscfxzqh":null,"gsqymc":null,"gsfrxm":null,"gsshxydm":null,"lczt":null,"scsj":null,"gsrq":null,"gssj":null,"gsr":null,"gsbm":null,"zfsj":null,"gxsj":null,"csbj":null,"gsyw":"01"},{"id":"50000210000000276568","wfbh":null,"jdslb":null,"jdsbh":null,"gslx":"1","jszh":null,"hpzl":null,"wfgxsj":null,"gsjdsbh":"5017002900198598","gsajmc":"张维刚机动车行驶超速50%以上案","gscflb":null,"gscfss":null,"gscfyj":null,"gsjsrxm":"张维刚","gshpzl":"小型汽车","gshphm":"渝BML922","gscfjg":"罚款1000元","gsjf":null,"gscfbm":"重庆市合川区公安局交通巡逻警察支队","gscfrq":"2017年09月28日","gscfxzqh":null,"gsqymc":null,"gsfrxm":null,"gsshxydm":null,"lczt":null,"scsj":null,"gsrq":null,"gssj":null,"gsr":null,"gsbm":null,"zfsj":null,"gxsj":null,"csbj":null,"gsyw":"01"},{"id":"50000210000000276268","wfbh":null,"jdslb":null,"jdsbh":null,"gslx":"1","jszh":null,"hpzl":null,"wfgxsj":null,"gsjdsbh":"5036002900843583","gsajmc":"来之栋机动车行驶超速50%以上案","gscflb":null,"gscfss":null,"gscfyj":null,"gsjsrxm":"来之栋","gshpzl":"小型汽车","gshphm":"渝F021G8","gscfjg":"罚款1000元","gsjf":null,"gscfbm":"重庆市奉节县公安局交通巡逻警察大队","gscfrq":"2017年09月28日","gscfxzqh":null,"gsqymc":null,"gsfrxm":null,"gsshxydm":null,"lczt":null,"scsj":null,"gsrq":null,"gssj":null,"gsr":null,"gsbm":null,"zfsj":null,"gxsj":null,"csbj":null,"gsyw":"01"},{"id":"50000210000000275748","wfbh":null,"jdslb":null,"jdsbh":null,"gslx":"1","jszh":null,"hpzl":null,"wfgxsj":null,"gsjdsbh":"5024002900224778","gsajmc":"蔡方兵机动车行驶超速50%以上案","gscflb":null,"gscfss":null,"gscfyj":null,"gsjsrxm":"蔡方兵","gshpzl":"小型汽车","gshphm":"渝C22W61","gscfjg":"罚款1000元","gsjf":null,"gscfbm":"重庆市铜梁区公安局交通巡逻警察支队","gscfrq":"2017年09月28日","gscfxzqh":null,"gsqymc":null,"gsfrxm":null,"gsshxydm":null,"lczt":null,"scsj":null,"gsrq":null,"gssj":null,"gsr":null,"gsbm":null,"zfsj":null,"gxsj":null,"csbj":null,"gsyw":"01"},{"id":"50000210000000275749","wfbh":null,"jdslb":null,"jdsbh":null,"gslx":"1","jszh":null,"hpzl":null,"wfgxsj":null,"gsjdsbh":"5031002900366491","gsajmc":"周李机动车行驶超速50%以上案","gscflb":null,"gscfss":null,"gscfyj":null,"gsjsrxm":"周李","gshpzl":"小型汽车","gshphm":"渝A80068","gscfjg":"罚款1000元","gsjf":null,"gscfbm":"重庆市垫江县公安局交通巡逻警察大队","gscfrq":"2017年09月28日","gscfxzqh":null,"gsqymc":null,"gsfrxm":null,"gsshxydm":null,"lczt":null,"scsj":null,"gsrq":null,"gssj":null,"gsr":null,"gsbm":null,"zfsj":null,"gxsj":null,"csbj":null,"gsyw":"01"},{"id":"50000210000000276008","wfbh":null,"jdslb":null,"jdsbh":null,"gslx":"1","jszh":null,"hpzl":null,"wfgxsj":null,"gsjdsbh":"5035002900829107","gsajmc":"李新运输单位的客运车辆载客或货运车辆超载，经处罚不改的(对直接负责的主管人员)案","gscflb":null,"gscfss":null,"gscfyj":null,"gsjsrxm":"李新","gshpzl":"大型汽车","gshphm":"渝AG0561","gscfjg":"罚款5000元","gsjf":null,"gscfbm":"重庆市云阳县公安局交通巡逻警察大队","gscfrq":"2017年09月28日","gscfxzqh":null,"gsqymc":null,"gsfrxm":null,"gsshxydm":null,"lczt":null,"scsj":null,"gsrq":null,"gssj":null,"gsr":null,"gsbm":null,"zfsj":null,"gxsj":null,"csbj":null,"gsyw":"01"},{"id":"50000210000000276608","wfbh":null,"jdslb":null,"jdsbh":null,"gslx":"1","jszh":null,"hpzl":null,"wfgxsj":null,"gsjdsbh":"501400190351039X","gsajmc":"程芝润机动车驾驶人违反道路通行规定案","gscflb":null,"gscfss":null,"gscfyj":null,"gsjsrxm":"程芝润","gshpzl":"大型汽车","gshphm":"渝AH1816","gscfjg":"罚款200元","gsjf":null,"gscfbm":"重庆市黔江区公安局交通巡逻警察支队","gscfrq":"2017年09月28日","gscfxzqh":null,"gsqymc":null,"gsfrxm":null,"gsshxydm":null,"lczt":null,"scsj":null,"gsrq":null,"gssj":null,"gsr":null,"gsbm":null,"zfsj":null,"gxsj":null,"csbj":null,"gsyw":"01"},{"id":"50000210000000276408","wfbh":null,"jdslb":null,"jdsbh":null,"gslx":"1","jszh":null,"hpzl":null,"wfgxsj":null,"gsjdsbh":"5042002900076190","gsajmc":"喻春机动车行驶超速50%以上案","gscflb":null,"gscfss":null,"gscfyj":null,"gsjsrxm":"喻春","gshpzl":"小型汽车","gshphm":"渝HF0567","gscfjg":"罚款1000元","gsjf":null,"gscfbm":"重庆市酉阳土家族苗族自治县公安局交通巡逻警察大队","gscfrq":"2017年09月28日","gscfxzqh":null,"gsqymc":null,"gsfrxm":null,"gsshxydm":null,"lczt":null,"scsj":null,"gsrq":null,"gssj":null,"gsr":null,"gsbm":null,"zfsj":null,"gxsj":null,"csbj":null,"gsyw":"01"},{"id":"50000210000000275468","wfbh":null,"jdslb":null,"jdsbh":null,"gslx":"1","jszh":null,"hpzl":null,"wfgxsj":null,"gsjdsbh":"5013002900194341","gsajmc":"李亚利机动车行驶超速50%以上案","gscflb":null,"gscfss":null,"gscfyj":null,"gsjsrxm":"李亚利","gshpzl":"小型汽车","gshphm":"渝A78C60","gscfjg":"罚款1000元","gsjf":null,"gscfbm":"重庆市公安局巴南区分局交通巡逻警察支队","gscfrq":"2017年09月28日","gscfxzqh":null,"gsqymc":null,"gsfrxm":null,"gsshxydm":null,"lczt":null,"scsj":null,"gsrq":null,"gssj":null,"gsr":null,"gsbm":null,"zfsj":null,"gxsj":null,"csbj":null,"gsyw":"01"},{"id":"50000210000000275208","wfbh":null,"jdslb":null,"jdsbh":null,"gslx":"1","jszh":null,"hpzl":null,"wfgxsj":null,"gsjdsbh":"5030002900450894","gsajmc":"蔡白涛饮酒后驾驶机动车案","gscflb":null,"gscfss":null,"gscfyj":null,"gsjsrxm":"蔡白涛","gshpzl":"小型汽车","gshphm":"渝G6D507","gscfjg":"行政拘留天，并处吊销驾驶证，并处罚款1500元","gsjf":null,"gscfbm":"重庆市丰都县公安局交通巡逻警察大队","gscfrq":"2017年09月28日","gscfxzqh":null,"gsqymc":null,"gsfrxm":null,"gsshxydm":null,"lczt":null,"scsj":null,"gsrq":null,"gssj":null,"gsr":null,"gsbm":null,"zfsj":null,"gxsj":null,"csbj":null,"gsyw":"01"},{"id":"50000210000000275128","wfbh":null,"jdslb":null,"jdsbh":null,"gslx":"1","jszh":null,"hpzl":null,"wfgxsj":null,"gsjdsbh":"5037002900369802","gsajmc":"陈立机动车行驶超速50%以上案","gscflb":null,"gscfss":null,"gscfyj":null,"gsjsrxm":"陈立","gshpzl":"大型汽车","gshphm":"渝FQ3385","gscfjg":"罚款1000元","gsjf":null,"gscfbm":"重庆市巫山县公安局交通巡逻警察大队","gscfrq":"2017年09月28日","gscfxzqh":null,"gsqymc":null,"gsfrxm":null,"gsshxydm":null,"lczt":null,"scsj":null,"gsrq":null,"gssj":null,"gsr":null,"gsbm":null,"zfsj":null,"gxsj":null,"csbj":null,"gsyw":"01"},{"id":"50000210000000275648","wfbh":null,"jdslb":null,"jdsbh":null,"gslx":"1","jszh":null,"hpzl":null,"wfgxsj":null,"gsjdsbh":"5001002901127889","gsajmc":"李陶机动车行驶超速50%以上案","gscflb":null,"gscfss":null,"gscfyj":null,"gsjsrxm":"李陶","gshpzl":"小型汽车","gshphm":"渝F517A7","gscfjg":"罚款1000元","gsjf":null,"gscfbm":"重庆市万州区公安局交通巡逻警察支队","gscfrq":"2017年09月28日","gscfxzqh":null,"gsqymc":null,"gsfrxm":null,"gsshxydm":null,"lczt":null,"scsj":null,"gsrq":null,"gssj":null,"gsr":null,"gsbm":null,"zfsj":null,"gxsj":null,"csbj":null,"gsyw":"01"},{"id":"50000210000000275288","wfbh":null,"jdslb":null,"jdsbh":null,"gslx":"1","jszh":null,"hpzl":null,"wfgxsj":null,"gsjdsbh":"5030002900450927","gsajmc":"王学伟醉酒后驾驶机动车案","gscflb":null,"gscfss":null,"gscfyj":null,"gsjsrxm":"王学伟","gshpzl":"小型汽车","gshphm":"渝GED575","gscfjg":"吊销驾驶证","gsjf":null,"gscfbm":"重庆市丰都县公安局交通巡逻警察大队","gscfrq":"2017年09月28日","gscfxzqh":null,"gsqymc":null,"gsfrxm":null,"gsshxydm":null,"lczt":null,"scsj":null,"gsrq":null,"gssj":null,"gsr":null,"gsbm":null,"zfsj":null,"gxsj":null,"csbj":null,"gsyw":"01"},{"id":"50000210000000275388","wfbh":null,"jdslb":null,"jdsbh":null,"gslx":"1","jszh":null,"hpzl":null,"wfgxsj":null,"gsjdsbh":"5027002900186201","gsajmc":"蒋兵机动车行驶超速50%以上案","gscflb":null,"gscfss":null,"gscfyj":null,"gsjsrxm":"蒋兵","gshpzl":"小型汽车","gshphm":"渝C6F351","gscfjg":"罚款1000元","gsjf":null,"gscfbm":"重庆市璧山区公安局交通巡逻警察支队","gscfrq":"2017年09月28日","gscfxzqh":null,"gsqymc":null,"gsfrxm":null,"gsshxydm":null,"lczt":null,"scsj":null,"gsrq":null,"gssj":null,"gsr":null,"gsbm":null,"zfsj":null,"gxsj":null,"csbj":null,"gsyw":"01"}],"first":false,"sort":null,"pageSize":20,"pageNo":18,"totalCount":2378,"last":false,"totalPages":119,"resultSize":20}},"code":200}